src/assets/vcd/default_trace.vcd
$date
     Jul 15, 2024       16:38:43
$end

$version
 SystemC 2.3.4-Accellera --- May 24 2024 22:14:56
$end

$timescale
     1 ps
$end

$scope module SystemC $end
$var wire   32  aaaaa  Data_In_0 [31:0]  $end
$var wire   32  aaaab  Data_Out_0 [31:0]  $end
$var wire   32  aaaac  Data_from_L1_to_L2_0 [31:0]  $end
$var wire   32  aaaad  Data_from_L2_to_L1_0 [31:0]  $end
$var wire   32  aaaae  Data_from_L2_to_L1_4 [31:0]  $end
$var wire   32  aaaaf  Data_from_L2_to_L1_8 [31:0]  $end
$var wire   32  aaaag  Data_from_L2_to_L1_12 [31:0]  $end
$var wire   32  aaaah  Data_from_L2_to_Memory_0 [31:0]  $end
$var wire   32  aaaai  Data_from_Memory_to_L2_0 [31:0]  $end
$var wire   32  aaaaj  Data_from_Memory_to_L2_4 [31:0]  $end
$var wire   32  aaaak  Data_from_Memory_to_L2_8 [31:0]  $end
$var wire   32  aaaal  Data_from_Memory_to_L2_12 [31:0]  $end
$var wire   32  aaaam  Address [31:0]  $end
$var wire   32  aaaan  Address_from_L1_to_L2 [31:0]  $end
$var wire   32  aaaao  Address_from_L2_to_Memory [31:0]  $end
$var wire    1  aaaap  WE       $end
$var wire    1  aaaaq  WE_from_L1_to_L2       $end
$var wire    1  aaaar  WE_from_L2_to_Memory       $end
$var wire    1  aaaas  Done_from_L1       $end
$var wire    1  aaaat  Done_from_L2       $end
$var wire    1  aaaau  Done_from_memory       $end
$var wire    1  aaaav  Hit_from_L1       $end
$var wire    1  aaaaw  Hit_from_L2       $end
$upscope $end
$enddefinitions  $end

$comment
All initial values are dumped below at time 0 sec = 0 timescale units.
$end

$dumpvars
b0 aaaaa
b0 aaaab
b0 aaaac
b0 aaaad
b0 aaaae
b0 aaaaf
b0 aaaag
b0 aaaah
b0 aaaai
b0 aaaaj
b0 aaaak
b0 aaaal
b1110010111011100001010010110000 aaaam
b0 aaaan
b0 aaaao
0aaaap
0aaaaq
0aaaar
0aaaas
0aaaat
0aaaau
0aaaav
0aaaaw
$end

#4000000000000
b1110010111011100001010010110000 aaaan

#16000000000000
b1110010111011100001010010110000 aaaao

#116000000000000
1aaaas
1aaaat

#117000000000000
b1110010111011100001100011000000 aaaam
0aaaas
0aaaat

#121000000000000
b1110010111011100001100011000000 aaaan

#133000000000000
b1110010111011100001100011000000 aaaao

#233000000000000
1aaaas
1aaaat

#234000000000000
b1110010111011100110011110010000 aaaam
0aaaas
0aaaat

#238000000000000
b1110010111011100110011110010000 aaaan

#250000000000000
b1110010111011100110011110010000 aaaao

#350000000000000
1aaaas
1aaaat

#351000000000000
b100111101110 aaaaa
1aaaap
0aaaas
0aaaat

#355000000000000
b100111101110 aaaac
1aaaaq
1aaaav

#367000000000000
b100111101110 aaaah
1aaaar
1aaaaw

#467000000000000
1aaaas
1aaaat
1aaaau

#468000000000000
b0 aaaaa
b1110010111011100001010010110100 aaaam
0aaaap
0aaaas
0aaaat
0aaaau
0aaaav
0aaaaw

#472000000000000
1aaaas
1aaaav

#473000000000000
b1110010111011100001100100000000 aaaam
0aaaas
0aaaav

#477000000000000
b1110010111011100001100100000000 aaaan
0aaaaq

#489000000000000
b1110010111011100001100100000000 aaaao
0aaaar

#589000000000000
1aaaas
1aaaat

#590000000000000
b1110010111011100110011110010000 aaaam
0aaaas
0aaaat

#594000000000000
b100111101110 aaaab
1aaaas
1aaaav

#595000000000000
b10001000000010 aaaaa
1aaaap
0aaaas
0aaaav

#599000000000000
b10001000000010 aaaac
b1110010111011100110011110010000 aaaan
1aaaaq
1aaaav

#611000000000000
b10001000000010 aaaah
b1110010111011100110011110010000 aaaao
1aaaar
1aaaaw

#711000000000000
1aaaas
1aaaat
1aaaau

#712000000000000
b0 aaaaa
b1110010111011100001010010111000 aaaam
0aaaap
0aaaas
0aaaat
0aaaau
0aaaav
0aaaaw

#716000000000000
b0 aaaab
1aaaas
1aaaav

#717000000000000
b1110010111011100001100101000000 aaaam
0aaaas
0aaaav

#721000000000000
b1110010111011100001100101000000 aaaan
0aaaaq

#733000000000000
b1110010111011100001100101000000 aaaao
0aaaar

#833000000000000
1aaaas
1aaaat

#834000000000000
b1110010111011100110011110010000 aaaam
0aaaas
0aaaat

#838000000000000
b10001000000010 aaaab
1aaaas
1aaaav

#839000000000000
b10110011100110 aaaaa
1aaaap
0aaaas
0aaaav

#843000000000000
b10110011100110 aaaac
b1110010111011100110011110010000 aaaan
1aaaaq
1aaaav

#855000000000000
b10110011100110 aaaah
b1110010111011100110011110010000 aaaao
1aaaar
1aaaaw

#955000000000000
1aaaas
1aaaat
1aaaau

#956000000000000
b0 aaaaa
b1110010111011100001010010111100 aaaam
0aaaap
0aaaas
0aaaat
0aaaau
0aaaav
0aaaaw

#960000000000000
b0 aaaab
1aaaas
1aaaav

#961000000000000
b1110010111011100001100110000000 aaaam
0aaaas
0aaaav

#965000000000000
b1110010111011100001100110000000 aaaan
0aaaaq

#977000000000000
b1110010111011100001100110000000 aaaao
0aaaar

#1077000000000000
1aaaas
1aaaat

#1078000000000000
b1110010111011100110011110010000 aaaam
0aaaas
0aaaat

#1082000000000000
b10110011100110 aaaab
1aaaas
1aaaav

#1083000000000000
b10110011100110 aaaaa
1aaaap
0aaaas
0aaaav

#1087000000000000
b1110010111011100110011110010000 aaaan
1aaaaq
1aaaav

#1099000000000000
b1110010111011100110011110010000 aaaao
1aaaar
1aaaaw

#1199000000000000
1aaaas
1aaaat
1aaaau

#1200000000000000
b0 aaaaa
b1110010111011100001010011000000 aaaam
0aaaap
0aaaas
0aaaat
0aaaau
0aaaav
0aaaaw

#1204000000000000
b1110010111011100001010011000000 aaaan
0aaaaq

#1216000000000000
b1110010111011100001010011000000 aaaao
0aaaar

#1316000000000000
b0 aaaab
1aaaas
1aaaat

#1317000000000000
b1110010111011100001100111000000 aaaam
0aaaas
0aaaat

#1321000000000000
b1110010111011100001100111000000 aaaan

#1333000000000000
b1110010111011100001100111000000 aaaao

#1433000000000000
1aaaas
1aaaat

#1434000000000000
b1110010111011100110011110010000 aaaam
0aaaas
0aaaat

#1438000000000000
b10110011100110 aaaab
1aaaas
1aaaav

#1439000000000000
b11101000011011 aaaaa
1aaaap
0aaaas
0aaaav

#1443000000000000
b11101000011011 aaaac
b1110010111011100110011110010000 aaaan
1aaaaq
1aaaav

#1455000000000000
b11101000011011 aaaah
b1110010111011100110011110010000 aaaao
1aaaar
1aaaaw

#1555000000000000
1aaaas
1aaaat
1aaaau

#1556000000000000
b0 aaaaa
b1110010111011100001010011000100 aaaam
0aaaap
0aaaas
0aaaat
0aaaau
0aaaav
0aaaaw

#1560000000000000
b1110010111011100001010011000100 aaaan
0aaaaq

#1572000000000000
b1110010111011100001010011000100 aaaao
0aaaar

#1672000000000000
b0 aaaab
1aaaas
1aaaat

#1673000000000000
b1110010111011100001101000000000 aaaam
0aaaas
0aaaat

#1677000000000000
b1110010111011100001101000000000 aaaan

#1689000000000000
b1110010111011100001101000000000 aaaao

#1789000000000000
1aaaas
1aaaat

#1790000000000000
b1110010111011100110011110010000 aaaam
0aaaas
0aaaat

#1794000000000000
b11101000011011 aaaab
1aaaas
1aaaav

#1795000000000000
b11101110011011 aaaaa
1aaaap
0aaaas
0aaaav

#1799000000000000
b11101110011011 aaaac
b1110010111011100110011110010000 aaaan
1aaaaq
1aaaav

#1811000000000000
b11101110011011 aaaah
b1110010111011100110011110010000 aaaao
1aaaar
1aaaaw

#1911000000000000
1aaaas
1aaaat
1aaaau

#1912000000000000
b0 aaaaa
b1110010111011100001010011001000 aaaam
0aaaap
0aaaas
0aaaat
0aaaau
0aaaav
0aaaaw

#1916000000000000
b1110010111011100001010011001000 aaaan
0aaaaq

#1928000000000000
b0 aaaab
1aaaas
1aaaat
1aaaaw

#1929000000000000
b1110010111011100001101001000000 aaaam
0aaaas
0aaaat
0aaaaw

#1933000000000000
b1110010111011100001101001000000 aaaan

#1945000000000000
b1110010111011100001101001000000 aaaao
0aaaar

#2045000000000000
1aaaas
1aaaat

#2046000000000000
b1110010111011100110011110010000 aaaam
0aaaas
0aaaat

#2050000000000000
b11101110011011 aaaab
1aaaas
1aaaav

#2051000000000000
b100100110011111 aaaaa
1aaaap
0aaaas
0aaaav

#2055000000000000
b100100110011111 aaaac
b1110010111011100110011110010000 aaaan
1aaaaq
1aaaav

#2067000000000000
b100100110011111 aaaah
b1110010111011100110011110010000 aaaao
1aaaar
1aaaaw

#2167000000000000
1aaaas
1aaaat
1aaaau

#2168000000000000
b0 aaaaa
b1110010111011100001010011001100 aaaam
0aaaap
0aaaas
0aaaat
0aaaau
0aaaav
0aaaaw

#2172000000000000
b1110010111011100001010011001100 aaaan
0aaaaq

#2184000000000000
b0 aaaab
1aaaas
1aaaat
1aaaaw

#2185000000000000
b1110010111011100001101010000000 aaaam
0aaaas
0aaaat
0aaaaw

#2189000000000000
b1110010111011100001101010000000 aaaan

#2201000000000000
b1110010111011100001101010000000 aaaao
0aaaar

#2301000000000000
1aaaas
1aaaat

#2302000000000000
b1110010111011100110011110010000 aaaam
0aaaas
0aaaat

#2306000000000000
b100100110011111 aaaab
1aaaas
1aaaav

#2307000000000000
b101010110100001 aaaaa
1aaaap
0aaaas
0aaaav

#2311000000000000
b101010110100001 aaaac
b1110010111011100110011110010000 aaaan
1aaaaq
1aaaav

#2323000000000000
b101010110100001 aaaah
b1110010111011100110011110010000 aaaao
1aaaar
1aaaaw

#2423000000000000
1aaaas
1aaaat
1aaaau

#2424000000000000
b0 aaaaa
b1110010111011100001010011010000 aaaam
0aaaap
0aaaas
0aaaat
0aaaau
0aaaav
0aaaaw

#2428000000000000
b1110010111011100001010011010000 aaaan
0aaaaq

#2440000000000000
b1110010111011100001010011010000 aaaao
0aaaar

#2540000000000000
b0 aaaab
1aaaas
1aaaat

#2541000000000000
b1110010111011100001101011000000 aaaam
0aaaas
0aaaat

#2545000000000000
b1110010111011100001101011000000 aaaan

#2557000000000000
b1110010111011100001101011000000 aaaao

#2657000000000000
1aaaas
1aaaat

#2658000000000000
b1110010111011100110011110010000 aaaam
0aaaas
0aaaat

#2662000000000000
b1110010111011100110011110010000 aaaan

#2674000000000000
b101010110100001 aaaab
b101010110100001 aaaad
1aaaas
1aaaat
1aaaaw

#2675000000000000
b101011000011101 aaaaa
1aaaap
0aaaas
0aaaat
0aaaaw

#2679000000000000
b101011000011101 aaaac
1aaaaq
1aaaav

#2691000000000000
b101011000011101 aaaah
b1110010111011100110011110010000 aaaao
1aaaar
1aaaaw

#2791000000000000
1aaaas
1aaaat
1aaaau

#2792000000000000
b0 aaaaa
b1110010111011100001010011010100 aaaam
0aaaap
0aaaas
0aaaat
0aaaau
0aaaav
0aaaaw

#2796000000000000
b1110010111011100001010011010100 aaaan
0aaaaq

#2808000000000000
b0 aaaab
b0 aaaad
1aaaas
1aaaat
1aaaaw

#2809000000000000
b1110010111011100001101100000000 aaaam
0aaaas
0aaaat
0aaaaw

#2813000000000000
b1110010111011100001101100000000 aaaan

#2825000000000000
b1110010111011100001101100000000 aaaao
0aaaar

#2925000000000000
1aaaas
1aaaat

#2926000000000000
b1110010111011100110011110010000 aaaam
0aaaas
0aaaat

#2930000000000000
b1110010111011100110011110010000 aaaan

#2942000000000000
b101011000011101 aaaab
b101011000011101 aaaad
1aaaas
1aaaat
1aaaaw

#2943000000000000
b110100001011101 aaaaa
1aaaap
0aaaas
0aaaat
0aaaaw

#2947000000000000
b110100001011101 aaaac
1aaaaq
1aaaav

#2959000000000000
b110100001011101 aaaah
b1110010111011100110011110010000 aaaao
1aaaar
1aaaaw

#3059000000000000
1aaaas
1aaaat
1aaaau

#3060000000000000
b0 aaaaa
b1110010111011100001010011011000 aaaam
0aaaap
0aaaas
0aaaat
0aaaau
0aaaav
0aaaaw

#3064000000000000
b1110010111011100001010011011000 aaaan
0aaaaq

#3076000000000000
b0 aaaab
b0 aaaad
1aaaas
1aaaat
1aaaaw

#3077000000000000
b1110010111011100001101101000000 aaaam
0aaaas
0aaaat
0aaaaw

#3081000000000000
b1110010111011100001101101000000 aaaan

#3093000000000000
b1110010111011100001101101000000 aaaao
0aaaar

#3193000000000000
1aaaas
1aaaat

#3194000000000000
b1110010111011100110011110010000 aaaam
0aaaas
0aaaat

#3198000000000000
b1110010111011100110011110010000 aaaan

#3210000000000000
b110100001011101 aaaab
b110100001011101 aaaad
1aaaas
1aaaat
1aaaaw

#3211000000000000
b110100011010000 aaaaa
1aaaap
0aaaas
0aaaat
0aaaaw

#3215000000000000
b110100011010000 aaaac
1aaaaq
1aaaav

#3227000000000000
b110100011010000 aaaah
b1110010111011100110011110010000 aaaao
1aaaar
1aaaaw

#3327000000000000
1aaaas
1aaaat
1aaaau

#3328000000000000
b0 aaaaa
b1110010111011100001010011011100 aaaam
0aaaap
0aaaas
0aaaat
0aaaau
0aaaav
0aaaaw

#3332000000000000
b1110010111011100001010011011100 aaaan
0aaaaq

#3344000000000000
b0 aaaab
b0 aaaad
1aaaas
1aaaat
1aaaaw

#3345000000000000
b1110010111011100001101110000000 aaaam
0aaaas
0aaaat
0aaaaw

#3349000000000000
b1110010111011100001101110000000 aaaan

#3361000000000000
b1110010111011100001101110000000 aaaao
0aaaar

#3461000000000000
1aaaas
1aaaat

#3462000000000000
b1110010111011100110011110010000 aaaam
0aaaas
0aaaat

#3466000000000000
b1110010111011100110011110010000 aaaan

#3478000000000000
b110100011010000 aaaab
b110100011010000 aaaad
1aaaas
1aaaat
1aaaaw

#3479000000000000
b111100000011011 aaaaa
1aaaap
0aaaas
0aaaat
0aaaaw

#3483000000000000
b111100000011011 aaaac
1aaaaq
1aaaav

#3495000000000000
b111100000011011 aaaah
b1110010111011100110011110010000 aaaao
1aaaar
1aaaaw

#3595000000000000
1aaaas
1aaaat
1aaaau

#3596000000000000
b0 aaaaa
b1110010111011100001010011100000 aaaam
0aaaap
0aaaas
0aaaat
0aaaau
0aaaav
0aaaaw

#3600000000000000
b1110010111011100001010011100000 aaaan
0aaaaq

#3612000000000000
b1110010111011100001010011100000 aaaao
0aaaar

#3712000000000000
b0 aaaab
b0 aaaad
1aaaas
1aaaat

#3713000000000000
b1110010111011100001101111000000 aaaam
0aaaas
0aaaat

#3717000000000000
b1110010111011100001101111000000 aaaan

#3729000000000000
b1110010111011100001101111000000 aaaao

#3829000000000000
1aaaas
1aaaat

#3830000000000000
b1110010111011100110011110010000 aaaam
0aaaas
0aaaat

#3834000000000000
b111100000011011 aaaab
1aaaas
1aaaav

#3835000000000000
b1001011000101010 aaaaa
1aaaap
0aaaas
0aaaav

#3839000000000000
b1001011000101010 aaaac
b1110010111011100110011110010000 aaaan
1aaaaq
1aaaav

#3851000000000000
b1001011000101010 aaaah
b1110010111011100110011110010000 aaaao
1aaaar
1aaaaw

#3951000000000000
1aaaas
1aaaat
1aaaau

#3952000000000000
b0 aaaaa
b1110010111011100001010011100100 aaaam
0aaaap
0aaaas
0aaaat
0aaaau
0aaaav
0aaaaw

#3956000000000000
b0 aaaab
1aaaas
1aaaav

#3957000000000000
b1110010111011100001110000000000 aaaam
0aaaas
0aaaav

#3961000000000000
b1110010111011100001110000000000 aaaan
0aaaaq

#3973000000000000
b1110010111011100001110000000000 aaaao
0aaaar

#4073000000000000
1aaaas
1aaaat

#4074000000000000
b1110010111011100110011110010000 aaaam
0aaaas
0aaaat

#4078000000000000
b1001011000101010 aaaab
1aaaas
1aaaav

#4079000000000000
b1001100000101011 aaaaa
1aaaap
0aaaas
0aaaav

#4083000000000000
b1001100000101011 aaaac
b1110010111011100110011110010000 aaaan
1aaaaq
1aaaav

#4095000000000000
b1001100000101011 aaaah
b1110010111011100110011110010000 aaaao
1aaaar
1aaaaw

#4195000000000000
1aaaas
1aaaat
1aaaau

#4196000000000000
b0 aaaaa
b1110010111011100001010011101000 aaaam
0aaaap
0aaaas
0aaaat
0aaaau
0aaaav
0aaaaw

#4200000000000000
b0 aaaab
1aaaas
1aaaav

#4201000000000000
b1110010111011100001110001000000 aaaam
0aaaas
0aaaav

#4205000000000000
b1110010111011100001110001000000 aaaan
0aaaaq

#4217000000000000
b1110010111011100001110001000000 aaaao
0aaaar

#4317000000000000
1aaaas
1aaaat

#4318000000000000
b1110010111011100110011110010000 aaaam
0aaaas
0aaaat

#4322000000000000
b1001100000101011 aaaab
1aaaas
1aaaav

#4323000000000000
b1010101110110101 aaaaa
1aaaap
0aaaas
0aaaav

#4327000000000000
b1010101110110101 aaaac
b1110010111011100110011110010000 aaaan
1aaaaq
1aaaav

#4339000000000000
b1010101110110101 aaaah
b1110010111011100110011110010000 aaaao
1aaaar
1aaaaw

#4439000000000000
1aaaas
1aaaat
1aaaau

#4440000000000000
b0 aaaaa
b1110010111011100001010011101100 aaaam
0aaaap
0aaaas
0aaaat
0aaaau
0aaaav
0aaaaw

#4444000000000000
b0 aaaab
1aaaas
1aaaav

#4445000000000000
b1110010111011100001110010000000 aaaam
0aaaas
0aaaav

#4449000000000000
b1110010111011100001110010000000 aaaan
0aaaaq

#4461000000000000
b1110010111011100001110010000000 aaaao
0aaaar

#4561000000000000
1aaaas
1aaaat

#4562000000000000
b1110010111011100110011110010000 aaaam
0aaaas
0aaaat

#4566000000000000
b1010101110110101 aaaab
1aaaas
1aaaav

#4567000000000000
b1011100011011100 aaaaa
1aaaap
0aaaas
0aaaav

#4571000000000000
b1011100011011100 aaaac
b1110010111011100110011110010000 aaaan
1aaaaq
1aaaav

#4583000000000000
b1011100011011100 aaaah
b1110010111011100110011110010000 aaaao
1aaaar
1aaaaw

#4683000000000000
1aaaas
1aaaat
1aaaau

#4684000000000000
b0 aaaaa
b1110010111011100001010010110000 aaaam
0aaaap
0aaaas
0aaaat
0aaaau
0aaaav
0aaaaw

#4688000000000000
b0 aaaab
1aaaas
1aaaav

#4689000000000000
b1110010111011100001100011000100 aaaam
0aaaas
0aaaav

#4693000000000000
b1110010111011100001100011000100 aaaan
0aaaaq

#4705000000000000
b1110010111011100001100011000100 aaaao
0aaaar

#4805000000000000
1aaaas
1aaaat

#4806000000000000
b1110010111011100110011110010100 aaaam
0aaaas
0aaaat

#4810000000000000
1aaaas
1aaaav

#4811000000000000
b110111000110 aaaaa
1aaaap
0aaaas
0aaaav

#4815000000000000
b110111000110 aaaac
b1110010111011100110011110010100 aaaan
1aaaaq
1aaaav

#4827000000000000
b110111000110 aaaah
b1110010111011100110011110010100 aaaao
1aaaar
1aaaaw

#4927000000000000
1aaaas
1aaaat
1aaaau

#4928000000000000
b0 aaaaa
b1110010111011100001010010110100 aaaam
0aaaap
0aaaas
0aaaat
0aaaau
0aaaav
0aaaaw

#4932000000000000
1aaaas
1aaaav

#4933000000000000
b1110010111011100001100100000100 aaaam
0aaaas
0aaaav

#4937000000000000
b1110010111011100001100100000100 aaaan
0aaaaq

#4949000000000000
b1110010111011100001100100000100 aaaao
0aaaar

#5049000000000000
1aaaas
1aaaat

#5050000000000000
b1110010111011100110011110010100 aaaam
0aaaas
0aaaat

#5054000000000000
b110111000110 aaaab
1aaaas
1aaaav

#5055000000000000
b10010100010001 aaaaa
1aaaap
0aaaas
0aaaav

#5059000000000000
b10010100010001 aaaac
b1110010111011100110011110010100 aaaan
1aaaaq
1aaaav

#5071000000000000
b10010100010001 aaaah
b1110010111011100110011110010100 aaaao
1aaaar
1aaaaw

#5171000000000000
1aaaas
1aaaat
1aaaau

#5172000000000000
b0 aaaaa
b1110010111011100001010010111000 aaaam
0aaaap
0aaaas
0aaaat
0aaaau
0aaaav
0aaaaw

#5176000000000000
b0 aaaab
1aaaas
1aaaav

#5177000000000000
b1110010111011100001100101000100 aaaam
0aaaas
0aaaav

#5181000000000000
b1110010111011100001100101000100 aaaan
0aaaaq

#5193000000000000
b1110010111011100001100101000100 aaaao
0aaaar

#5293000000000000
1aaaas
1aaaat

#5294000000000000
b1110010111011100110011110010100 aaaam
0aaaas
0aaaat

#5298000000000000
b10010100010001 aaaab
1aaaas
1aaaav

#5299000000000000
b11000001011011 aaaaa
1aaaap
0aaaas
0aaaav

#5303000000000000
b11000001011011 aaaac
b1110010111011100110011110010100 aaaan
1aaaaq
1aaaav

#5315000000000000
b11000001011011 aaaah
b1110010111011100110011110010100 aaaao
1aaaar
1aaaaw

#5415000000000000
1aaaas
1aaaat
1aaaau

#5416000000000000
b0 aaaaa
b1110010111011100001010010111100 aaaam
0aaaap
0aaaas
0aaaat
0aaaau
0aaaav
0aaaaw

#5420000000000000
b0 aaaab
1aaaas
1aaaav

#5421000000000000
b1110010111011100001100110000100 aaaam
0aaaas
0aaaav

#5425000000000000
b1110010111011100001100110000100 aaaan
0aaaaq

#5437000000000000
b1110010111011100001100110000100 aaaao
0aaaar

#5537000000000000
1aaaas
1aaaat

#5538000000000000
b1110010111011100110011110010100 aaaam
0aaaas
0aaaat

#5542000000000000
b11000001011011 aaaab
1aaaas
1aaaav

#5543000000000000
b11000001011011 aaaaa
1aaaap
0aaaas
0aaaav

#5547000000000000
b1110010111011100110011110010100 aaaan
1aaaaq
1aaaav

#5559000000000000
b1110010111011100110011110010100 aaaao
1aaaar
1aaaaw

#5659000000000000
1aaaas
1aaaat
1aaaau

#5660000000000000
b0 aaaaa
b1110010111011100001010011000000 aaaam
0aaaap
0aaaas
0aaaat
0aaaau
0aaaav
0aaaaw

#5664000000000000
b1110010111011100001010011000000 aaaan
0aaaaq

#5676000000000000
b1110010111011100001010011000000 aaaao
0aaaar

#5776000000000000
b0 aaaab
1aaaas
1aaaat

#5777000000000000
b1110010111011100001100111000100 aaaam
0aaaas
0aaaat

#5781000000000000
b1110010111011100001100111000100 aaaan

#5793000000000000
b1110010111011100001100111000100 aaaao

#5893000000000000
1aaaas
1aaaat

#5894000000000000
b1110010111011100110011110010100 aaaam
0aaaas
0aaaat

#5898000000000000
b11000001011011 aaaab
1aaaas
1aaaav

#5899000000000000
b11101001010100 aaaaa
1aaaap
0aaaas
0aaaav

#5903000000000000
b11101001010100 aaaac
b1110010111011100110011110010100 aaaan
1aaaaq
1aaaav

#5915000000000000
b11101001010100 aaaah
b1110010111011100110011110010100 aaaao
1aaaar
1aaaaw

#6015000000000000
1aaaas
1aaaat
1aaaau

#6016000000000000
b0 aaaaa
b1110010111011100001010011000100 aaaam
0aaaap
0aaaas
0aaaat
0aaaau
0aaaav
0aaaaw

#6020000000000000
b1110010111011100001010011000100 aaaan
0aaaaq

#6032000000000000
b1110010111011100001010011000100 aaaao
0aaaar

#6132000000000000
b0 aaaab
1aaaas
1aaaat

#6133000000000000
b1110010111011100001101000000100 aaaam
0aaaas
0aaaat

#6137000000000000
b1110010111011100001101000000100 aaaan

#6149000000000000
b1110010111011100001101000000100 aaaao

#6249000000000000
1aaaas
1aaaat

#6250000000000000
b1110010111011100110011110010100 aaaam
0aaaas
0aaaat

#6254000000000000
b11101001010100 aaaab
1aaaas
1aaaav

#6255000000000000
b100000011111100 aaaaa
1aaaap
0aaaas
0aaaav

#6259000000000000
b100000011111100 aaaac
b1110010111011100110011110010100 aaaan
1aaaaq
1aaaav

#6271000000000000
b100000011111100 aaaah
b1110010111011100110011110010100 aaaao
1aaaar
1aaaaw

#6371000000000000
1aaaas
1aaaat
1aaaau

#6372000000000000
b0 aaaaa
b1110010111011100001010011001000 aaaam
0aaaap
0aaaas
0aaaat
0aaaau
0aaaav
0aaaaw

#6376000000000000
b1110010111011100001010011001000 aaaan
0aaaaq

#6388000000000000
b0 aaaab
1aaaas
1aaaat
1aaaaw

#6389000000000000
b1110010111011100001101001000100 aaaam
0aaaas
0aaaat
0aaaaw

#6393000000000000
b1110010111011100001101001000100 aaaan

#6405000000000000
b1110010111011100001101001000100 aaaao
0aaaar

#6505000000000000
1aaaas
1aaaat

#6506000000000000
b1110010111011100110011110010100 aaaam
0aaaas
0aaaat

#6510000000000000
b100000011111100 aaaab
1aaaas
1aaaav

#6511000000000000
b101100111111000 aaaaa
1aaaap
0aaaas
0aaaav

#6515000000000000
b101100111111000 aaaac
b1110010111011100110011110010100 aaaan
1aaaaq
1aaaav

#6527000000000000
b101100111111000 aaaah
b1110010111011100110011110010100 aaaao
1aaaar
1aaaaw

#6627000000000000
1aaaas
1aaaat
1aaaau

#6628000000000000
b0 aaaaa
b1110010111011100001010011001100 aaaam
0aaaap
0aaaas
0aaaat
0aaaau
0aaaav
0aaaaw

#6632000000000000
b1110010111011100001010011001100 aaaan
0aaaaq

#6644000000000000
b0 aaaab
1aaaas
1aaaat
1aaaaw

#6645000000000000
b1110010111011100001101010000100 aaaam
0aaaas
0aaaat
0aaaaw

#6649000000000000
b1110010111011100001101010000100 aaaan

#6661000000000000
b1110010111011100001101010000100 aaaao
0aaaar

#6761000000000000
1aaaas
1aaaat

#6762000000000000
b1110010111011100110011110010100 aaaam
0aaaas
0aaaat

#6766000000000000
b101100111111000 aaaab
1aaaas
1aaaav

#6767000000000000
b101111101101000 aaaaa
1aaaap
0aaaas
0aaaav

#6771000000000000
b101111101101000 aaaac
b1110010111011100110011110010100 aaaan
1aaaaq
1aaaav

#6783000000000000
b101111101101000 aaaah
b1110010111011100110011110010100 aaaao
1aaaar
1aaaaw

#6883000000000000
1aaaas
1aaaat
1aaaau

#6884000000000000
b0 aaaaa
b1110010111011100001010011010000 aaaam
0aaaap
0aaaas
0aaaat
0aaaau
0aaaav
0aaaaw

#6888000000000000
b1110010111011100001010011010000 aaaan
0aaaaq

#6900000000000000
b0 aaaab
1aaaas
1aaaat
1aaaaw

#6901000000000000
b1110010111011100001101011000100 aaaam
0aaaas
0aaaat
0aaaaw

#6905000000000000
b1110010111011100001101011000100 aaaan

#6917000000000000
b1110010111011100001101011000100 aaaao
0aaaar

#7017000000000000
1aaaas
1aaaat

#7018000000000000
b1110010111011100110011110010100 aaaam
0aaaas
0aaaat

#7022000000000000
b1110010111011100110011110010100 aaaan

#7034000000000000
b1011100011011100 aaaad
1aaaas
1aaaat
1aaaaw

#7035000000000000
b110010101110110 aaaaa
1aaaap
0aaaas
0aaaat
0aaaaw

#7039000000000000
b110010101110110 aaaac
1aaaaq
1aaaav

#7051000000000000
b110010101110110 aaaah
b1110010111011100110011110010100 aaaao
1aaaar
1aaaaw

#7151000000000000
1aaaas
1aaaat
1aaaau

#7152000000000000
b0 aaaaa
b1110010111011100001010011010100 aaaam
0aaaap
0aaaas
0aaaat
0aaaau
0aaaav
0aaaaw

#7156000000000000
b1110010111011100001010011010100 aaaan
0aaaaq

#7168000000000000
b0 aaaad
1aaaas
1aaaat
1aaaaw

#7169000000000000
b1110010111011100001101100000100 aaaam
0aaaas
0aaaat
0aaaaw

#7173000000000000
b1110010111011100001101100000100 aaaan

#7185000000000000
b1110010111011100001101100000100 aaaao
0aaaar

#7285000000000000
1aaaas
1aaaat

#7286000000000000
b1110010111011100110011110010100 aaaam
0aaaas
0aaaat

#7290000000000000
b1110010111011100110011110010100 aaaan

#7302000000000000
b1011100011011100 aaaad
1aaaas
1aaaat
1aaaaw

#7303000000000000
b111011011110110 aaaaa
1aaaap
0aaaas
0aaaat
0aaaaw

#7307000000000000
b111011011110110 aaaac
1aaaaq
1aaaav

#7319000000000000
b111011011110110 aaaah
b1110010111011100110011110010100 aaaao
1aaaar
1aaaaw

#7419000000000000
1aaaas
1aaaat
1aaaau

#7420000000000000
b0 aaaaa
b1110010111011100001010011011000 aaaam
0aaaap
0aaaas
0aaaat
0aaaau
0aaaav
0aaaaw

#7424000000000000
b1110010111011100001010011011000 aaaan
0aaaaq

#7436000000000000
b0 aaaad
1aaaas
1aaaat
1aaaaw

#7437000000000000
b1110010111011100001101101000100 aaaam
0aaaas
0aaaat
0aaaaw

#7441000000000000
b1110010111011100001101101000100 aaaan

#7453000000000000
b1110010111011100001101101000100 aaaao
0aaaar

#7553000000000000
1aaaas
1aaaat

#7554000000000000
b1110010111011100110011110010100 aaaam
0aaaas
0aaaat

#7558000000000000
b1110010111011100110011110010100 aaaan

#7570000000000000
b1011100011011100 aaaad
1aaaas
1aaaat
1aaaaw

#7571000000000000
b111100001011110 aaaaa
1aaaap
0aaaas
0aaaat
0aaaaw

#7575000000000000
b111100001011110 aaaac
1aaaaq
1aaaav

#7587000000000000
b111100001011110 aaaah
b1110010111011100110011110010100 aaaao
1aaaar
1aaaaw

#7687000000000000
1aaaas
1aaaat
1aaaau

#7688000000000000
b0 aaaaa
b1110010111011100001010011011100 aaaam
0aaaap
0aaaas
0aaaat
0aaaau
0aaaav
0aaaaw

#7692000000000000
b1110010111011100001010011011100 aaaan
0aaaaq

#7704000000000000
b0 aaaad
1aaaas
1aaaat
1aaaaw

#7705000000000000
b1110010111011100001101110000100 aaaam
0aaaas
0aaaat
0aaaaw

#7709000000000000
b1110010111011100001101110000100 aaaan

#7721000000000000
b1110010111011100001101110000100 aaaao
0aaaar

#7821000000000000
1aaaas
1aaaat

#7822000000000000
b1110010111011100110011110010100 aaaam
0aaaas
0aaaat

#7826000000000000
b1110010111011100110011110010100 aaaan

#7838000000000000
b1011100011011100 aaaad
1aaaas
1aaaat
1aaaaw

#7839000000000000
b1000001011101010 aaaaa
1aaaap
0aaaas
0aaaat
0aaaaw

#7843000000000000
b1000001011101010 aaaac
1aaaaq
1aaaav

#7855000000000000
b1000001011101010 aaaah
b1110010111011100110011110010100 aaaao
1aaaar
1aaaaw

#7955000000000000
1aaaas
1aaaat
1aaaau

#7956000000000000
b0 aaaaa
b1110010111011100001010011100000 aaaam
0aaaap
0aaaas
0aaaat
0aaaau
0aaaav
0aaaaw

#7960000000000000
1aaaas
1aaaav

#7961000000000000
b1110010111011100001101111000100 aaaam
0aaaas
0aaaav

#7965000000000000
b1110010111011100001101111000100 aaaan
0aaaaq

#7977000000000000
b1110010111011100001101111000100 aaaao
0aaaar

