src/assets/vcd/default_trace.vcd
$date
     Jul 16, 2024       15:55:07
$end

$version
 SystemC 2.3.4-Accellera --- May 24 2024 22:14:56
$end

$timescale
     1 ps
$end

$scope module SystemC $end
$var wire   32  aaaaa  Data_In_0 [31:0]  $end
$var wire   32  aaaab  Data_Out_0 [31:0]  $end
$var wire   32  aaaac  Data_from_L1_to_L2_0 [31:0]  $end
$var wire   32  aaaad  Data_from_L2_to_L1_0 [31:0]  $end
$var wire   32  aaaae  Data_from_L2_to_L1_4 [31:0]  $end
$var wire   32  aaaaf  Data_from_L2_to_L1_8 [31:0]  $end
$var wire   32  aaaag  Data_from_L2_to_L1_12 [31:0]  $end
$var wire   32  aaaah  Data_from_L2_to_Memory_0 [31:0]  $end
$var wire   32  aaaai  Data_from_Memory_to_L2_0 [31:0]  $end
$var wire   32  aaaaj  Data_from_Memory_to_L2_4 [31:0]  $end
$var wire   32  aaaak  Data_from_Memory_to_L2_8 [31:0]  $end
$var wire   32  aaaal  Data_from_Memory_to_L2_12 [31:0]  $end
$var wire   32  aaaam  Address [31:0]  $end
$var wire   32  aaaan  Address_from_L1_to_L2 [31:0]  $end
$var wire   32  aaaao  Address_from_L2_to_Memory [31:0]  $end
$var wire    1  aaaap  WE       $end
$var wire    1  aaaaq  WE_from_L1_to_L2       $end
$var wire    1  aaaar  WE_from_L2_to_Memory       $end
$var wire    1  aaaas  Done_from_L1       $end
$var wire    1  aaaat  Done_from_L2       $end
$var wire    1  aaaau  Done_from_memory       $end
$var wire    1  aaaav  Hit_from_L1       $end
$var wire    1  aaaaw  Hit_from_L2       $end
$upscope $end
$enddefinitions  $end

$comment
All initial values are dumped below at time 0 sec = 0 timescale units.
$end

$dumpvars
b0 aaaaa
b0 aaaab
b0 aaaac
b0 aaaad
b0 aaaae
b0 aaaaf
b0 aaaag
b0 aaaah
b0 aaaai
b0 aaaaj
b0 aaaak
b0 aaaal
b1011100000100000111001010100000 aaaam
b0 aaaan
b0 aaaao
0aaaap
0aaaaq
0aaaar
0aaaas
0aaaat
0aaaau
0aaaav
0aaaaw
$end

#64000
b1011100000100000111001010100000 aaaan

#256000
b1011100000100000111001010100000 aaaao

#1856000
1aaaas
1aaaat

#1872000
b1011100000100000111011010110000 aaaam
0aaaas
0aaaat

#1936000
b1011100000100000111011010110000 aaaan

#2128000
b1011100000100000111011010110000 aaaao

#3728000
1aaaas
1aaaat

#3744000
b1011100000100000111101011000000 aaaam
0aaaas
0aaaat

#3808000
b1011100000100000111101011000000 aaaan

#4000000
b1011100000100000111101011000000 aaaao

#5600000
1aaaas
1aaaat

#5616000
b11001111100 aaaaa
1aaaap
0aaaas
0aaaat

#5680000
b11001111100 aaaac
1aaaaq
1aaaav

#5872000
b11001111100 aaaah
1aaaar
1aaaaw

#7472000
1aaaas
1aaaat
1aaaau

#7488000
b0 aaaaa
b1011100000100000111001010100100 aaaam
0aaaap
0aaaas
0aaaat
0aaaau
0aaaav
0aaaaw

#7552000
1aaaas
1aaaav

#7568000
b1011100000100000111011011110000 aaaam
0aaaas
0aaaav

#7632000
b1011100000100000111011011110000 aaaan
0aaaaq

#7824000
b1011100000100000111011011110000 aaaao
0aaaar

#9424000
1aaaas
1aaaat

#9440000
b1011100000100000111101011000000 aaaam
0aaaas
0aaaat

#9504000
b11001111100 aaaab
1aaaas
1aaaav

#9520000
b1011111110100 aaaaa
1aaaap
0aaaas
0aaaav

#9584000
b1011111110100 aaaac
b1011100000100000111101011000000 aaaan
1aaaaq
1aaaav

#9776000
b1011111110100 aaaah
b1011100000100000111101011000000 aaaao
1aaaar
1aaaaw

#11376000
1aaaas
1aaaat
1aaaau

#11392000
b0 aaaaa
b1011100000100000111001010101000 aaaam
0aaaap
0aaaas
0aaaat
0aaaau
0aaaav
0aaaaw

#11456000
b0 aaaab
1aaaas
1aaaav

#11472000
b1011100000100000111011100110000 aaaam
0aaaas
0aaaav

#11536000
b1011100000100000111011100110000 aaaan
0aaaaq

#11728000
b1011100000100000111011100110000 aaaao
0aaaar

#13328000
1aaaas
1aaaat

#13344000
b1011100000100000111101011000000 aaaam
0aaaas
0aaaat

#13408000
b1011111110100 aaaab
1aaaas
1aaaav

#13424000
b11010110111011 aaaaa
1aaaap
0aaaas
0aaaav

#13488000
b11010110111011 aaaac
b1011100000100000111101011000000 aaaan
1aaaaq
1aaaav

#13680000
b11010110111011 aaaah
b1011100000100000111101011000000 aaaao
1aaaar
1aaaaw

#15280000
1aaaas
1aaaat
1aaaau

#15296000
b0 aaaaa
b1011100000100000111001010101100 aaaam
0aaaap
0aaaas
0aaaat
0aaaau
0aaaav
0aaaaw

#15360000
b0 aaaab
1aaaas
1aaaav

#15376000
b1011100000100000111011101110000 aaaam
0aaaas
0aaaav

#15440000
b1011100000100000111011101110000 aaaan
0aaaaq

#15632000
b1011100000100000111011101110000 aaaao
0aaaar

#17232000
1aaaas
1aaaat

#17248000
b1011100000100000111101011000000 aaaam
0aaaas
0aaaat

#17312000
b11010110111011 aaaab
1aaaas
1aaaav

#17328000
b11011111010111 aaaaa
1aaaap
0aaaas
0aaaav

#17392000
b11011111010111 aaaac
b1011100000100000111101011000000 aaaan
1aaaaq
1aaaav

#17584000
b11011111010111 aaaah
b1011100000100000111101011000000 aaaao
1aaaar
1aaaaw

#19184000
1aaaas
1aaaat
1aaaau

#19200000
b0 aaaaa
b1011100000100000111001010110000 aaaam
0aaaap
0aaaas
0aaaat
0aaaau
0aaaav
0aaaaw

#19264000
b1011100000100000111001010110000 aaaan
0aaaaq

#19456000
b1011100000100000111001010110000 aaaao
0aaaar

#21056000
b0 aaaab
1aaaas
1aaaat

#21072000
b1011100000100000111011110110000 aaaam
0aaaas
0aaaat

#21136000
b1011100000100000111011110110000 aaaan

#21328000
b1011100000100000111011110110000 aaaao

#22928000
1aaaas
1aaaat

#22944000
b1011100000100000111101011000000 aaaam
0aaaas
0aaaat

#23008000
b11011111010111 aaaab
1aaaas
1aaaav

#23024000
b11101000000101 aaaaa
1aaaap
0aaaas
0aaaav

#23088000
b11101000000101 aaaac
b1011100000100000111101011000000 aaaan
1aaaaq
1aaaav

#23280000
b11101000000101 aaaah
b1011100000100000111101011000000 aaaao
1aaaar
1aaaaw

#24880000
1aaaas
1aaaat
1aaaau

#24896000
b0 aaaaa
b1011100000100000111001010110100 aaaam
0aaaap
0aaaas
0aaaat
0aaaau
0aaaav
0aaaaw

#24960000
b1011100000100000111001010110100 aaaan
0aaaaq

#25152000
b1011100000100000111001010110100 aaaao
0aaaar

#26752000
b0 aaaab
1aaaas
1aaaat

#26768000
b1011100000100000111011111110000 aaaam
0aaaas
0aaaat

#26832000
b1011100000100000111011111110000 aaaan

#27024000
b1011100000100000111011111110000 aaaao

#28624000
1aaaas
1aaaat

#28640000
b1011100000100000111101011000000 aaaam
0aaaas
0aaaat

#28704000
b11101000000101 aaaab
1aaaas
1aaaav

#28720000
b11110110110110 aaaaa
1aaaap
0aaaas
0aaaav

#28784000
b11110110110110 aaaac
b1011100000100000111101011000000 aaaan
1aaaaq
1aaaav

#28976000
b11110110110110 aaaah
b1011100000100000111101011000000 aaaao
1aaaar
1aaaaw

#30576000
1aaaas
1aaaat
1aaaau

#30592000
b0 aaaaa
b1011100000100000111001010111000 aaaam
0aaaap
0aaaas
0aaaat
0aaaau
0aaaav
0aaaaw

#30656000
b1011100000100000111001010111000 aaaan
0aaaaq

#30848000
b0 aaaab
1aaaas
1aaaat
1aaaaw

#30864000
b1011100000100000111100000110000 aaaam
0aaaas
0aaaat
0aaaaw

#30928000
b1011100000100000111100000110000 aaaan

#31120000
b1011100000100000111100000110000 aaaao
0aaaar

#32720000
1aaaas
1aaaat

#32736000
b1011100000100000111101011000000 aaaam
0aaaas
0aaaat

#32800000
b11110110110110 aaaab
1aaaas
1aaaav

#32816000
b100011000011100 aaaaa
1aaaap
0aaaas
0aaaav

#32880000
b100011000011100 aaaac
b1011100000100000111101011000000 aaaan
1aaaaq
1aaaav

#33072000
b100011000011100 aaaah
b1011100000100000111101011000000 aaaao
1aaaar
1aaaaw

#34672000
1aaaas
1aaaat
1aaaau

#34688000
b0 aaaaa
b1011100000100000111001010111100 aaaam
0aaaap
0aaaas
0aaaat
0aaaau
0aaaav
0aaaaw

#34752000
b1011100000100000111001010111100 aaaan
0aaaaq

#34944000
b0 aaaab
1aaaas
1aaaat
1aaaaw

#34960000
b1011100000100000111100001110000 aaaam
0aaaas
0aaaat
0aaaaw

#35024000
b1011100000100000111100001110000 aaaan

#35216000
b1011100000100000111100001110000 aaaao
0aaaar

#36816000
1aaaas
1aaaat

#36832000
b1011100000100000111101011000000 aaaam
0aaaas
0aaaat

#36896000
b100011000011100 aaaab
1aaaas
1aaaav

#36912000
b101000110011100 aaaaa
1aaaap
0aaaas
0aaaav

#36976000
b101000110011100 aaaac
b1011100000100000111101011000000 aaaan
1aaaaq
1aaaav

#37168000
b101000110011100 aaaah
b1011100000100000111101011000000 aaaao
1aaaar
1aaaaw

#38768000
1aaaas
1aaaat
1aaaau

#38784000
b0 aaaaa
b1011100000100000111001011000000 aaaam
0aaaap
0aaaas
0aaaat
0aaaau
0aaaav
0aaaaw

#38848000
b1011100000100000111001011000000 aaaan
0aaaaq

#39040000
b1011100000100000111001011000000 aaaao
0aaaar

#40640000
b0 aaaab
1aaaas
1aaaat

#40656000
b1011100000100000111100010110000 aaaam
0aaaas
0aaaat

#40720000
b1011100000100000111100010110000 aaaan

#40912000
b1011100000100000111100010110000 aaaao

#42512000
1aaaas
1aaaat

#42528000
b1011100000100000111101011000000 aaaam
0aaaas
0aaaat

#42592000
b1011100000100000111101011000000 aaaan

#42784000
b1011100000100000111101011000000 aaaao

#44384000
b101000110011100 aaaab
b101000110011100 aaaad
b101000110011100 aaaai
1aaaas
1aaaat

#44400000
b101010110100001 aaaaa
1aaaap
0aaaas
0aaaat

#44464000
b101010110100001 aaaac
1aaaaq
1aaaav

#44656000
b101010110100001 aaaah
1aaaar
1aaaaw

#46256000
1aaaas
1aaaat
1aaaau

#46272000
b0 aaaaa
b1011100000100000111001011000100 aaaam
0aaaap
0aaaas
0aaaat
0aaaau
0aaaav
0aaaaw

#46336000
b1011100000100000111001011000100 aaaan
0aaaaq

#46528000
b1011100000100000111001011000100 aaaao
0aaaar

#48128000
b0 aaaab
b0 aaaad
b0 aaaai
1aaaas
1aaaat

#48144000
b1011100000100000111100011110000 aaaam
0aaaas
0aaaat

#48208000
b1011100000100000111100011110000 aaaan

#48400000
b1011100000100000111100011110000 aaaao

#50000000
1aaaas
1aaaat

#50016000
b1011100000100000111101011000000 aaaam
0aaaas
0aaaat

#50080000
b1011100000100000111101011000000 aaaan

#50272000
b1011100000100000111101011000000 aaaao

#51872000
b101010110100001 aaaab
b101010110100001 aaaad
b101010110100001 aaaai
1aaaas
1aaaat

#51888000
b101011111101101 aaaaa
1aaaap
0aaaas
0aaaat

#51952000
b101011111101101 aaaac
1aaaaq
1aaaav

#52144000
b101011111101101 aaaah
1aaaar
1aaaaw

#53744000
1aaaas
1aaaat
1aaaau

#53760000
b0 aaaaa
b1011100000100000111001011001000 aaaam
0aaaap
0aaaas
0aaaat
0aaaau
0aaaav
0aaaaw

#53824000
b1011100000100000111001011001000 aaaan
0aaaaq

#54016000
b1011100000100000111001011001000 aaaao
0aaaar

#55616000
b0 aaaab
b0 aaaad
b0 aaaai
1aaaas
1aaaat

#55632000
b1011100000100000111100100110000 aaaam
0aaaas
0aaaat

#55696000
b1011100000100000111100100110000 aaaan

#55888000
b1011100000100000111100100110000 aaaao

#57488000
1aaaas
1aaaat

#57504000
b1011100000100000111101011000000 aaaam
0aaaas
0aaaat

#57568000
b1011100000100000111101011000000 aaaan

#57760000
b1011100000100000111101011000000 aaaao

#59360000
b101011111101101 aaaab
b101011111101101 aaaad
b101011111101101 aaaai
1aaaas
1aaaat

#59376000
b110100000100111 aaaaa
1aaaap
0aaaas
0aaaat

#59440000
b110100000100111 aaaac
1aaaaq
1aaaav

#59632000
b110100000100111 aaaah
1aaaar
1aaaaw

#61232000
1aaaas
1aaaat
1aaaau

#61248000
b0 aaaaa
b1011100000100000111001011001100 aaaam
0aaaap
0aaaas
0aaaat
0aaaau
0aaaav
0aaaaw

#61312000
b1011100000100000111001011001100 aaaan
0aaaaq

#61504000
b1011100000100000111001011001100 aaaao
0aaaar

#63104000
b0 aaaab
b0 aaaad
b0 aaaai
1aaaas
1aaaat

#63120000
b1011100000100000111100101110000 aaaam
0aaaas
0aaaat

#63184000
b1011100000100000111100101110000 aaaan

#63376000
b1011100000100000111100101110000 aaaao

#64976000
1aaaas
1aaaat

#64992000
b1011100000100000111101011000000 aaaam
0aaaas
0aaaat

#65056000
b1011100000100000111101011000000 aaaan

#65248000
b1011100000100000111101011000000 aaaao

#66848000
b110100000100111 aaaab
b110100000100111 aaaad
b110100000100111 aaaai
1aaaas
1aaaat

#66864000
b111000100111001 aaaaa
1aaaap
0aaaas
0aaaat

#66928000
b111000100111001 aaaac
1aaaaq
1aaaav

#67120000
b111000100111001 aaaah
1aaaar
1aaaaw

#68720000
1aaaas
1aaaat
1aaaau

#68736000
b0 aaaaa
b1011100000100000111001011010000 aaaam
0aaaap
0aaaas
0aaaat
0aaaau
0aaaav
0aaaaw

#68800000
b1011100000100000111001011010000 aaaan
0aaaaq

#68992000
b1011100000100000111001011010000 aaaao
0aaaar

#70592000
b0 aaaab
b0 aaaad
b0 aaaai
1aaaas
1aaaat

#70608000
b1011100000100000111100110110000 aaaam
0aaaas
0aaaat

#70672000
b1011100000100000111100110110000 aaaan

#70864000
b1011100000100000111100110110000 aaaao

#72464000
1aaaas
1aaaat

#72480000
b1011100000100000111101011000000 aaaam
0aaaas
0aaaat

#72544000
b111000100111001 aaaab
1aaaas
1aaaav

#72560000
b1000001011001101 aaaaa
1aaaap
0aaaas
0aaaav

#72624000
b1000001011001101 aaaac
b1011100000100000111101011000000 aaaan
1aaaaq
1aaaav

#72816000
b1000001011001101 aaaah
b1011100000100000111101011000000 aaaao
1aaaar
1aaaaw

#74416000
1aaaas
1aaaat
1aaaau

#74432000
b0 aaaaa
b1011100000100000111001011010100 aaaam
0aaaap
0aaaas
0aaaat
0aaaau
0aaaav
0aaaaw

#74496000
b0 aaaab
1aaaas
1aaaav

#74512000
b1011100000100000111100111110000 aaaam
0aaaas
0aaaav

#74576000
b1011100000100000111100111110000 aaaan
0aaaaq

#74768000
b1011100000100000111100111110000 aaaao
0aaaar

#76368000
1aaaas
1aaaat

#76384000
b1011100000100000111101011000000 aaaam
0aaaas
0aaaat

#76448000
b1000001011001101 aaaab
1aaaas
1aaaav

#76464000
b1001000001100110 aaaaa
1aaaap
0aaaas
0aaaav

#76528000
b1001000001100110 aaaac
b1011100000100000111101011000000 aaaan
1aaaaq
1aaaav

#76720000
b1001000001100110 aaaah
b1011100000100000111101011000000 aaaao
1aaaar
1aaaaw

#78320000
1aaaas
1aaaat
1aaaau

#78336000
b0 aaaaa
b1011100000100000111001011011000 aaaam
0aaaap
0aaaas
0aaaat
0aaaau
0aaaav
0aaaaw

#78400000
b0 aaaab
1aaaas
1aaaav

#78416000
b1011100000100000111101000110000 aaaam
0aaaas
0aaaav

#78480000
b1011100000100000111101000110000 aaaan
0aaaaq

#78672000
b1011100000100000111101000110000 aaaao
0aaaar

#80272000
1aaaas
1aaaat

#80288000
b1011100000100000111101011000000 aaaam
0aaaas
0aaaat

#80352000
b1001000001100110 aaaab
1aaaas
1aaaav

#80368000
b1010001101011001 aaaaa
1aaaap
0aaaas
0aaaav

#80432000
b1010001101011001 aaaac
b1011100000100000111101011000000 aaaan
1aaaaq
1aaaav

#80624000
b1010001101011001 aaaah
b1011100000100000111101011000000 aaaao
1aaaar
1aaaaw

#82224000
1aaaas
1aaaat
1aaaau

#82240000
b0 aaaaa
b1011100000100000111001011011100 aaaam
0aaaap
0aaaas
0aaaat
0aaaau
0aaaav
0aaaaw

#82304000
b0 aaaab
1aaaas
1aaaav

#82320000
b1011100000100000111101001110000 aaaam
0aaaas
0aaaav

#82384000
b1011100000100000111101001110000 aaaan
0aaaaq

#82576000
b1011100000100000111101001110000 aaaao
0aaaar

#84176000
1aaaas
1aaaat

#84192000
b1011100000100000111101011000000 aaaam
0aaaas
0aaaat

#84256000
b1010001101011001 aaaab
1aaaas
1aaaav

#84272000
b1010011110000011 aaaaa
1aaaap
0aaaas
0aaaav

#84336000
b1010011110000011 aaaac
b1011100000100000111101011000000 aaaan
1aaaaq
1aaaav

#84528000
b1010011110000011 aaaah
b1011100000100000111101011000000 aaaao
1aaaar
1aaaaw

#86128000
1aaaas
1aaaat
1aaaau

#86144000
b0 aaaaa
b1011100000100000111001010100000 aaaam
0aaaap
0aaaas
0aaaat
0aaaau
0aaaav
0aaaaw

#86208000
b0 aaaab
1aaaas
1aaaav

#86224000
b1011100000100000111011010110100 aaaam
0aaaas
0aaaav

#86288000
b1011100000100000111011010110100 aaaan
0aaaaq

#86480000
b1011100000100000111011010110100 aaaao
0aaaar

#88080000
1aaaas
1aaaat

#88096000
b1011100000100000111101011000100 aaaam
0aaaas
0aaaat

#88160000
1aaaas
1aaaav

#88176000
b101110101100 aaaaa
1aaaap
0aaaas
0aaaav

#88240000
b101110101100 aaaac
b1011100000100000111101011000100 aaaan
1aaaaq
1aaaav

#88432000
b101110101100 aaaah
b1011100000100000111101011000100 aaaao
1aaaar
1aaaaw

#90032000
1aaaas
1aaaat
1aaaau

#90048000
b0 aaaaa
b1011100000100000111001010100100 aaaam
0aaaap
0aaaas
0aaaat
0aaaau
0aaaav
0aaaaw

#90112000
1aaaas
1aaaav

#90128000
b1011100000100000111011011110100 aaaam
0aaaas
0aaaav

#90192000
b1011100000100000111011011110100 aaaan
0aaaaq

#90384000
b1011100000100000111011011110100 aaaao
0aaaar

#91984000
1aaaas
1aaaat

#92000000
b1011100000100000111101011000100 aaaam
0aaaas
0aaaat

#92064000
b101110101100 aaaab
1aaaas
1aaaav

#92080000
b10110011101110 aaaaa
1aaaap
0aaaas
0aaaav

#92144000
b10110011101110 aaaac
b1011100000100000111101011000100 aaaan
1aaaaq
1aaaav

#92336000
b10110011101110 aaaah
b1011100000100000111101011000100 aaaao
1aaaar
1aaaaw

#93936000
1aaaas
1aaaat
1aaaau

#93952000
b0 aaaaa
b1011100000100000111001010101000 aaaam
0aaaap
0aaaas
0aaaat
0aaaau
0aaaav
0aaaaw

#94016000
b0 aaaab
1aaaas
1aaaav

#94032000
b1011100000100000111011100110100 aaaam
0aaaas
0aaaav

#94096000
b1011100000100000111011100110100 aaaan
0aaaaq

#94288000
b1011100000100000111011100110100 aaaao
0aaaar

#95888000
1aaaas
1aaaat

#95904000
b1011100000100000111101011000100 aaaam
0aaaas
0aaaat

#95968000
b10110011101110 aaaab
1aaaas
1aaaav

#95984000
b100100111001110 aaaaa
1aaaap
0aaaas
0aaaav

#96048000
b100100111001110 aaaac
b1011100000100000111101011000100 aaaan
1aaaaq
1aaaav

#96240000
b100100111001110 aaaah
b1011100000100000111101011000100 aaaao
1aaaar
1aaaaw

#97840000
1aaaas
1aaaat
1aaaau

#97856000
b0 aaaaa
b1011100000100000111001010101100 aaaam
0aaaap
0aaaas
0aaaat
0aaaau
0aaaav
0aaaaw

#97920000
b0 aaaab
1aaaas
1aaaav

#97936000
b1011100000100000111011101110100 aaaam
0aaaas
0aaaav

#98000000
b1011100000100000111011101110100 aaaan
0aaaaq

#98192000
b1011100000100000111011101110100 aaaao
0aaaar

#99792000
1aaaas
1aaaat

#99808000
b1011100000100000111101011000100 aaaam
0aaaas
0aaaat

#99872000
b100100111001110 aaaab
1aaaas
1aaaav

#99888000
b100101000110111 aaaaa
1aaaap
0aaaas
0aaaav

#99952000
b100101000110111 aaaac
b1011100000100000111101011000100 aaaan
1aaaaq
1aaaav

#100144000
b100101000110111 aaaah
b1011100000100000111101011000100 aaaao
1aaaar
1aaaaw

#101744000
1aaaas
1aaaat
1aaaau

#101760000
b0 aaaaa
b1011100000100000111001010110000 aaaam
0aaaap
0aaaas
0aaaat
0aaaau
0aaaav
0aaaaw

#101824000
b1011100000100000111001010110000 aaaan
0aaaaq

#102016000
b1011100000100000111001010110000 aaaao
0aaaar

#103616000
b0 aaaab
1aaaas
1aaaat

#103632000
b1011100000100000111011110110100 aaaam
0aaaas
0aaaat

#103696000
b1011100000100000111011110110100 aaaan

#103888000
b1011100000100000111011110110100 aaaao

#105488000
1aaaas
1aaaat

#105504000
b1011100000100000111101011000100 aaaam
0aaaas
0aaaat

#105568000
b100101000110111 aaaab
1aaaas
1aaaav

#105584000
b100101010010100 aaaaa
1aaaap
0aaaas
0aaaav

#105648000
b100101010010100 aaaac
b1011100000100000111101011000100 aaaan
1aaaaq
1aaaav

#105840000
b100101010010100 aaaah
b1011100000100000111101011000100 aaaao
1aaaar
1aaaaw

#107440000
1aaaas
1aaaat
1aaaau

#107456000
b0 aaaaa
b1011100000100000111001010110100 aaaam
0aaaap
0aaaas
0aaaat
0aaaau
0aaaav
0aaaaw

#107520000
b1011100000100000111001010110100 aaaan
0aaaaq

#107712000
b1011100000100000111001010110100 aaaao
0aaaar

#109312000
b0 aaaab
1aaaas
1aaaat

#109328000
b1011100000100000111011111110100 aaaam
0aaaas
0aaaat

#109392000
b1011100000100000111011111110100 aaaan

#109584000
b1011100000100000111011111110100 aaaao

#111184000
1aaaas
1aaaat

#111200000
b1011100000100000111101011000100 aaaam
0aaaas
0aaaat

#111264000
b100101010010100 aaaab
1aaaas
1aaaav

#111280000
b101000101101010 aaaaa
1aaaap
0aaaas
0aaaav

#111344000
b101000101101010 aaaac
b1011100000100000111101011000100 aaaan
1aaaaq
1aaaav

#111536000
b101000101101010 aaaah
b1011100000100000111101011000100 aaaao
1aaaar
1aaaaw

#113136000
1aaaas
1aaaat
1aaaau

#113152000
b0 aaaaa
b1011100000100000111001010111000 aaaam
0aaaap
0aaaas
0aaaat
0aaaau
0aaaav
0aaaaw

#113216000
b1011100000100000111001010111000 aaaan
0aaaaq

#113408000
b0 aaaab
1aaaas
1aaaat
1aaaaw

#113424000
b1011100000100000111100000110100 aaaam
0aaaas
0aaaat
0aaaaw

#113488000
b1011100000100000111100000110100 aaaan

#113680000
b1011100000100000111100000110100 aaaao
0aaaar

#115280000
1aaaas
1aaaat

#115296000
b1011100000100000111101011000100 aaaam
0aaaas
0aaaat

#115360000
b101000101101010 aaaab
1aaaas
1aaaav

#115376000
b110110111111000 aaaaa
1aaaap
0aaaas
0aaaav

#115440000
b110110111111000 aaaac
b1011100000100000111101011000100 aaaan
1aaaaq
1aaaav

#115632000
b110110111111000 aaaah
b1011100000100000111101011000100 aaaao
1aaaar
1aaaaw

#117232000
1aaaas
1aaaat
1aaaau

#117248000
b0 aaaaa
b1011100000100000111001010111100 aaaam
0aaaap
0aaaas
0aaaat
0aaaau
0aaaav
0aaaaw

#117312000
b1011100000100000111001010111100 aaaan
0aaaaq

#117504000
b0 aaaab
1aaaas
1aaaat
1aaaaw

#117520000
b1011100000100000111100001110100 aaaam
0aaaas
0aaaat
0aaaaw

#117584000
b1011100000100000111100001110100 aaaan

#117776000
b1011100000100000111100001110100 aaaao
0aaaar

#119376000
1aaaas
1aaaat

#119392000
b1011100000100000111101011000100 aaaam
0aaaas
0aaaat

#119456000
b110110111111000 aaaab
1aaaas
1aaaav

#119472000
b1000000110111100 aaaaa
1aaaap
0aaaas
0aaaav

#119536000
b1000000110111100 aaaac
b1011100000100000111101011000100 aaaan
1aaaaq
1aaaav

#119728000
b1000000110111100 aaaah
b1011100000100000111101011000100 aaaao
1aaaar
1aaaaw

#121328000
1aaaas
1aaaat
1aaaau

#121344000
b0 aaaaa
b1011100000100000111001011000000 aaaam
0aaaap
0aaaas
0aaaat
0aaaau
0aaaav
0aaaaw

#121408000
b1011100000100000111001011000000 aaaan
0aaaaq

#121600000
b1011100000100000111001011000000 aaaao
0aaaar

#123200000
b0 aaaab
1aaaas
1aaaat

#123216000
b1011100000100000111100010110100 aaaam
0aaaas
0aaaat

#123280000
b1011100000100000111100010110100 aaaan

#123472000
b1011100000100000111100010110100 aaaao

#125072000
1aaaas
1aaaat

#125088000
b1011100000100000111101011000100 aaaam
0aaaas
0aaaat

#125152000
b1011100000100000111101011000100 aaaan

#125344000
b1011100000100000111101011000100 aaaao

#126944000
b1000000110111100 aaaad
b1000000110111100 aaaai
1aaaas
1aaaat

#126960000
b1000111010001111 aaaaa
1aaaap
0aaaas
0aaaat

#127024000
b1000111010001111 aaaac
1aaaaq
1aaaav

#127216000
b1000111010001111 aaaah
1aaaar
1aaaaw

#128816000
1aaaas
1aaaat
1aaaau

#128832000
b0 aaaaa
b1011100000100000111001011000100 aaaam
0aaaap
0aaaas
0aaaat
0aaaau
0aaaav
0aaaaw

#128896000
b1011100000100000111001011000100 aaaan
0aaaaq

#129088000
b1011100000100000111001011000100 aaaao
0aaaar

#130688000
b0 aaaad
b0 aaaai
1aaaas
1aaaat

#130704000
b1011100000100000111100011110100 aaaam
0aaaas
0aaaat

#130768000
b1011100000100000111100011110100 aaaan

#130960000
b1011100000100000111100011110100 aaaao

#132560000
1aaaas
1aaaat

#132576000
b1011100000100000111101011000100 aaaam
0aaaas
0aaaat

#132640000
b1011100000100000111101011000100 aaaan

#132832000
b1011100000100000111101011000100 aaaao

#134432000
b1000111010001111 aaaad
b1000111010001111 aaaai
1aaaas
1aaaat

#134448000
b1001010111011100 aaaaa
1aaaap
0aaaas
0aaaat

#134512000
b1001010111011100 aaaac
1aaaaq
1aaaav

#134704000
b1001010111011100 aaaah
1aaaar
1aaaaw

#136304000
1aaaas
1aaaat
1aaaau

#136320000
b0 aaaaa
b1011100000100000111001011001000 aaaam
0aaaap
0aaaas
0aaaat
0aaaau
0aaaav
0aaaaw

#136384000
b1011100000100000111001011001000 aaaan
0aaaaq

#136576000
b1011100000100000111001011001000 aaaao
0aaaar

#138176000
b0 aaaad
b0 aaaai
1aaaas
1aaaat

#138192000
b1011100000100000111100100110100 aaaam
0aaaas
0aaaat

#138256000
b1011100000100000111100100110100 aaaan

#138448000
b1011100000100000111100100110100 aaaao

#140048000
1aaaas
1aaaat

#140064000
b1011100000100000111101011000100 aaaam
0aaaas
0aaaat

#140128000
b1011100000100000111101011000100 aaaan

#140320000
b1011100000100000111101011000100 aaaao

#141920000
b1001010111011100 aaaad
b1001010111011100 aaaai
1aaaas
1aaaat

#141936000
b1010000100000000 aaaaa
1aaaap
0aaaas
0aaaat

#142000000
b1010000100000000 aaaac
1aaaaq
1aaaav

#142192000
b1010000100000000 aaaah
1aaaar
1aaaaw

#143792000
1aaaas
1aaaat
1aaaau

#143808000
b0 aaaaa
b1011100000100000111001011001100 aaaam
0aaaap
0aaaas
0aaaat
0aaaau
0aaaav
0aaaaw

#143872000
b1011100000100000111001011001100 aaaan
0aaaaq

#144064000
b1011100000100000111001011001100 aaaao
0aaaar

#145664000
b0 aaaad
b0 aaaai
1aaaas
1aaaat

#145680000
b1011100000100000111100101110100 aaaam
0aaaas
0aaaat

#145744000
b1011100000100000111100101110100 aaaan

#145936000
b1011100000100000111100101110100 aaaao

#147536000
1aaaas
1aaaat

#147552000
b1011100000100000111101011000100 aaaam
0aaaas
0aaaat

#147616000
b1011100000100000111101011000100 aaaan

#147808000
b1011100000100000111101011000100 aaaao

#149408000
b1010000100000000 aaaad
b1010000100000000 aaaai
1aaaas
1aaaat

#149424000
b1010001110100011 aaaaa
1aaaap
0aaaas
0aaaat

#149488000
b1010001110100011 aaaac
1aaaaq
1aaaav

#149680000
b1010001110100011 aaaah
1aaaar
1aaaaw

#151280000
1aaaas
1aaaat
1aaaau

#151296000
b0 aaaaa
b1011100000100000111001011010000 aaaam
0aaaap
0aaaas
0aaaat
0aaaau
0aaaav
0aaaaw

#151360000
1aaaas
1aaaav

#151376000
b1011100000100000111100110110100 aaaam
0aaaas
0aaaav

#151440000
b1011100000100000111100110110100 aaaan
0aaaaq

#151632000
b1011100000100000111100110110100 aaaao
0aaaar

#153232000
b0 aaaad
b0 aaaai
1aaaas
1aaaat

#153248000
b1011100000100000111101011000100 aaaam
0aaaas
0aaaat

#153312000
b1010001110100011 aaaab
1aaaas
1aaaav

#153328000
b1011010010000011 aaaaa
1aaaap
0aaaas
0aaaav

#153392000
b1011010010000011 aaaac
b1011100000100000111101011000100 aaaan
1aaaaq
1aaaav

#153584000
b1011010010000011 aaaah
b1011100000100000111101011000100 aaaao
1aaaar
1aaaaw

#155184000
1aaaas
1aaaat
1aaaau

#155200000
b0 aaaaa
b1011100000100000111001011010100 aaaam
0aaaap
0aaaas
0aaaat
0aaaau
0aaaav
0aaaaw

#155264000
b0 aaaab
1aaaas
1aaaav

#155280000
b1011100000100000111100111110100 aaaam
0aaaas
0aaaav

#155344000
b1011100000100000111100111110100 aaaan
0aaaaq

#155536000
b1011100000100000111100111110100 aaaao
0aaaar

#157136000
1aaaas
1aaaat

#157152000
b1011100000100000111101011000100 aaaam
0aaaas
0aaaat

#157216000
b1011010010000011 aaaab
1aaaas
1aaaav

#157232000
b1100000001000100 aaaaa
1aaaap
0aaaas
0aaaav

#157296000
b1100000001000100 aaaac
b1011100000100000111101011000100 aaaan
1aaaaq
1aaaav

#157488000
b1100000001000100 aaaah
b1011100000100000111101011000100 aaaao
1aaaar
1aaaaw

#159088000
1aaaas
1aaaat
1aaaau

#159104000
b0 aaaaa
b1011100000100000111001011011000 aaaam
0aaaap
0aaaas
0aaaat
0aaaau
0aaaav
0aaaaw

#159168000
b0 aaaab
1aaaas
1aaaav

#159184000
b1011100000100000111101000110100 aaaam
0aaaas
0aaaav

#159248000
b1011100000100000111101000110100 aaaan
0aaaaq

#159440000
b1011100000100000111101000110100 aaaao
0aaaar

