src/assets/vcd/default_trace.vcd
$date
     Jul 08, 2024       15:34:31
$end

$version
 SystemC 2.3.4-Accellera --- May 24 2024 22:14:56
$end

$timescale
     1 ps
$end

$scope module SystemC $end
$var wire   32  aaaaa  Data_In_0 [31:0]  $end
$var wire   32  aaaab  Data_Out_0 [31:0]  $end
$var wire   32  aaaac  Data-from_L1_to_L2_0 [31:0]  $end
$var wire   32  aaaad  Data_from_L2_to_L1_0 [31:0]  $end
$var wire   32  aaaae  Data_from_L2_to_Memory_0 [31:0]  $end
$var wire   32  aaaaf  Data_from_Memory_to_L2_0 [31:0]  $end
$var wire   32  aaaag  Address [31:0]  $end
$var wire   32  aaaah  Address_from_L1_to_L2 [31:0]  $end
$var wire   32  aaaai  Address_from_L2_to_Memory [31:0]  $end
$var wire    1  aaaaj  WE       $end
$var wire    1  aaaak  WE_from_L1_to_L2       $end
$var wire    1  aaaal  WE_from_L2_to_Memory       $end
$var wire    1  aaaam  Done_from_L1       $end
$var wire    1  aaaan  Done_from_L2       $end
$var wire    1  aaaao  Done_from_memory       $end
$var wire    1  aaaap  Hit_from_L1       $end
$var wire    1  aaaaq  Hit_from_L2       $end
$upscope $end
$enddefinitions  $end

$comment
All initial values are dumped below at time 0 sec = 0 timescale units.
$end

$dumpvars
b0 aaaaa
b0 aaaab
b0 aaaac
b0 aaaad
b0 aaaae
b0 aaaaf
b1010010110000 aaaag
b1010010110000 aaaah
b1010010110000 aaaai
0aaaaj
0aaaak
0aaaal
0aaaam
0aaaan
0aaaao
0aaaap
0aaaaq
$end

#100000000000000
1aaaao

#101000000000000
0aaaao

#112000000000000
1aaaan

#113000000000000
0aaaan

#116000000000000
1aaaam

#117000000000000
b1100011000000 aaaag
b1100011000000 aaaah
0aaaam

#118000000000000
b1100011000000 aaaai

#218000000000000
1aaaao

#219000000000000
0aaaao

#230000000000000
1aaaan

#231000000000000
0aaaan

#234000000000000
1aaaam

#235000000000000
b1010010110100 aaaag
0aaaam
1aaaap

#238000000000000
1aaaam

#239000000000000
b1100100000000 aaaag
b1100100000000 aaaah
0aaaam
0aaaap

#240000000000000
b1100100000000 aaaai

#340000000000000
1aaaao

#341000000000000
0aaaao

#352000000000000
1aaaan

#353000000000000
0aaaan

#356000000000000
1aaaam

#357000000000000
b1010010111000 aaaag
0aaaam
1aaaap

#360000000000000
1aaaam

#361000000000000
b1100101000000 aaaag
b1100101000000 aaaah
0aaaam
0aaaap

#362000000000000
1aaaaq

#373000000000000
1aaaan

#374000000000000
0aaaan

#377000000000000
1aaaam

#378000000000000
b1010010111100 aaaag
0aaaam
1aaaap

#381000000000000
1aaaam

#382000000000000
b1100110000000 aaaag
b1100110000000 aaaah
0aaaam
0aaaap

#394000000000000
1aaaan

#395000000000000
0aaaan

#398000000000000
1aaaam

#399000000000000
b1010011000000 aaaag
b1010011000000 aaaah
0aaaam

#411000000000000
1aaaan

#412000000000000
0aaaan

#415000000000000
1aaaam

#416000000000000
b1100111000000 aaaag
b1100111000000 aaaah
0aaaam

#428000000000000
1aaaan

#429000000000000
0aaaan

#432000000000000
1aaaam

#433000000000000
b1010011000100 aaaag
0aaaam
1aaaap

#436000000000000
1aaaam

#437000000000000
b1101000000000 aaaag
b1101000000000 aaaah
0aaaam
0aaaap

#438000000000000
b1101000000000 aaaai
0aaaaq

#538000000000000
1aaaao

#539000000000000
0aaaao

#550000000000000
1aaaan

#551000000000000
0aaaan

#554000000000000
1aaaam

#555000000000000
b1010011001000 aaaag
0aaaam
1aaaap

#558000000000000
1aaaam

#559000000000000
b1101001000000 aaaag
b1101001000000 aaaah
0aaaam
0aaaap

#560000000000000
1aaaaq

#571000000000000
1aaaan

#572000000000000
0aaaan

#575000000000000
1aaaam

#576000000000000
b1010011001100 aaaag
0aaaam
1aaaap

#579000000000000
1aaaam

#580000000000000
b1101010000000 aaaag
b1101010000000 aaaah
0aaaam
0aaaap

#592000000000000
1aaaan

#593000000000000
0aaaan

#596000000000000
1aaaam

#597000000000000
b1010011010000 aaaag
0aaaam
1aaaap

#600000000000000
1aaaam

#601000000000000
b1101011000000 aaaag
b1101011000000 aaaah
0aaaam
0aaaap

#613000000000000
1aaaan

#614000000000000
0aaaan

#617000000000000
1aaaam

#618000000000000
b1010011010100 aaaag
0aaaam
1aaaap

#621000000000000
1aaaam

#622000000000000
b1101100000000 aaaag
b1101100000000 aaaah
0aaaam
0aaaap

#623000000000000
b1101100000000 aaaai
0aaaaq

#723000000000000
1aaaao

#724000000000000
0aaaao

#735000000000000
1aaaan

#736000000000000
0aaaan

#739000000000000
1aaaam

#740000000000000
b1010011011000 aaaag
0aaaam
1aaaap

#743000000000000
1aaaam

#744000000000000
b1101101000000 aaaag
b1101101000000 aaaah
0aaaam
0aaaap

#745000000000000
1aaaaq

#756000000000000
1aaaan

#757000000000000
0aaaan

#760000000000000
1aaaam

#761000000000000
b1010011011100 aaaag
0aaaam
1aaaap

#764000000000000
1aaaam

#765000000000000
b1101110000000 aaaag
b1101110000000 aaaah
0aaaam
0aaaap

#777000000000000
1aaaan

#778000000000000
0aaaan

#781000000000000
1aaaam

#782000000000000
b1010011100000 aaaag
0aaaam
1aaaap

#785000000000000
1aaaam

#786000000000000
b1101111000000 aaaag
b1101111000000 aaaah
0aaaam
0aaaap

#798000000000000
1aaaan

#799000000000000
0aaaan

#802000000000000
1aaaam

#803000000000000
b1010011100100 aaaag
0aaaam
1aaaap

#806000000000000
1aaaam

#807000000000000
b1110000000000 aaaag
b1110000000000 aaaah
0aaaam
0aaaap

#808000000000000
b1110000000000 aaaai
0aaaaq

#908000000000000
1aaaao

#909000000000000
0aaaao

#920000000000000
1aaaan

#921000000000000
0aaaan

#924000000000000
1aaaam

#925000000000000
b1010011101000 aaaag
0aaaam
1aaaap

#928000000000000
1aaaam

#929000000000000
b1110001000000 aaaag
b1110001000000 aaaah
0aaaam
0aaaap

#930000000000000
1aaaaq

#941000000000000
1aaaan

#942000000000000
0aaaan

#945000000000000
1aaaam

#946000000000000
b1010011101100 aaaag
0aaaam
1aaaap

#949000000000000
1aaaam

#950000000000000
b1110010000000 aaaag
b1110010000000 aaaah
0aaaam
0aaaap

#962000000000000
1aaaan

#963000000000000
0aaaan

#966000000000000
1aaaam

#967000000000000
b1011100011011100 aaaaa
b1011100011011100 aaaac
b110011101100000 aaaag
b110011101100000 aaaah
1aaaaj
1aaaak
0aaaam

#968000000000000
b1011100011011100 aaaae
b110011101100000 aaaai
1aaaal
0aaaaq

#1068000000000000
1aaaao

#1069000000000000
0aaaao

#1080000000000000
1aaaan

#1081000000000000
0aaaan

#1084000000000000
1aaaam

#1085000000000000
b0 aaaaa
b1010010110000 aaaag
0aaaaj
0aaaam
1aaaap

#1088000000000000
1aaaam

#1089000000000000
b1100011000100 aaaag
0aaaam

#1092000000000000
1aaaam

#1093000000000000
b1010010110100 aaaag
0aaaam

#1096000000000000
1aaaam

#1097000000000000
b1100100000100 aaaag
0aaaam

#1100000000000000
1aaaam

#1101000000000000
b1010010111000 aaaag
0aaaam

#1104000000000000
1aaaam

#1105000000000000
b1100101000100 aaaag
0aaaam

#1108000000000000
1aaaam

#1109000000000000
b1010010111100 aaaag
0aaaam

#1112000000000000
1aaaam

#1113000000000000
b1100110000100 aaaag
0aaaam

#1116000000000000
1aaaam

#1117000000000000
b1010011000000 aaaag
0aaaam

#1120000000000000
1aaaam

#1121000000000000
b1100111000100 aaaag
0aaaam

#1124000000000000
1aaaam

#1125000000000000
b1010011000100 aaaag
0aaaam

#1128000000000000
1aaaam

#1129000000000000
b1101000000100 aaaag
0aaaam

#1132000000000000
1aaaam

#1133000000000000
b1010011001000 aaaag
0aaaam

#1136000000000000
1aaaam

#1137000000000000
b1101001000100 aaaag
0aaaam

#1140000000000000
1aaaam

#1141000000000000
b1010011001100 aaaag
0aaaam

#1144000000000000
1aaaam

#1145000000000000
b1101010000100 aaaag
0aaaam

#1148000000000000
1aaaam

#1149000000000000
b1010011010000 aaaag
0aaaam

#1152000000000000
1aaaam

#1153000000000000
b1101011000100 aaaag
0aaaam

#1156000000000000
1aaaam

#1157000000000000
b1010011010100 aaaag
0aaaam

#1160000000000000
1aaaam

#1161000000000000
b1101100000100 aaaag
0aaaam

#1164000000000000
1aaaam

#1165000000000000
b1010011011000 aaaag
0aaaam

#1168000000000000
1aaaam

#1169000000000000
b1101101000100 aaaag
0aaaam

#1172000000000000
1aaaam

#1173000000000000
b1010011011100 aaaag
0aaaam

#1176000000000000
1aaaam

#1177000000000000
b1101110000100 aaaag
0aaaam

#1180000000000000
1aaaam

#1181000000000000
b1010011100000 aaaag
0aaaam

#1184000000000000
1aaaam

#1185000000000000
b1101111000100 aaaag
0aaaam

#1188000000000000
1aaaam

#1189000000000000
b1010011100100 aaaag
0aaaam

#1192000000000000
1aaaam

#1193000000000000
b1110000000100 aaaag
0aaaam

#1196000000000000
1aaaam

#1197000000000000
b1010011101000 aaaag
0aaaam

#1200000000000000
1aaaam

#1201000000000000
b1110001000100 aaaag
0aaaam

#1204000000000000
1aaaam

#1205000000000000
b1010011101100 aaaag
0aaaam

#1208000000000000
1aaaam

#1209000000000000
b1110010000100 aaaag
0aaaam

#1212000000000000
1aaaam

#1213000000000000
b1011101000101011 aaaaa
b1011101000101011 aaaac
b110011101100100 aaaag
b110011101100100 aaaah
1aaaaj
0aaaam
0aaaap

#1214000000000000
b1011101000101011 aaaae
b110011101100100 aaaai

#1314000000000000
1aaaao

#1315000000000000
0aaaao

#1326000000000000
1aaaan

#1327000000000000
0aaaan

#1330000000000000
1aaaam

#1331000000000000
b0 aaaaa
b1010010110000 aaaag
0aaaaj
0aaaam
1aaaap

#1334000000000000
1aaaam

#1335000000000000
b1100011001000 aaaag
0aaaam

#1338000000000000
1aaaam

#1339000000000000
b1010010110100 aaaag
0aaaam

#1342000000000000
1aaaam

#1343000000000000
b1100100001000 aaaag
0aaaam

#1346000000000000
1aaaam

#1347000000000000
b1010010111000 aaaag
0aaaam

#1350000000000000
1aaaam

#1351000000000000
b1100101001000 aaaag
0aaaam

#1354000000000000
1aaaam

#1355000000000000
b1010010111100 aaaag
0aaaam

#1358000000000000
1aaaam

#1359000000000000
b1100110001000 aaaag
0aaaam

#1362000000000000
1aaaam

#1363000000000000
b1010011000000 aaaag
0aaaam

#1366000000000000
1aaaam

#1367000000000000
b1100111001000 aaaag
0aaaam

#1370000000000000
1aaaam

#1371000000000000
b1010011000100 aaaag
0aaaam

#1374000000000000
1aaaam

#1375000000000000
b1101000001000 aaaag
0aaaam

#1378000000000000
1aaaam

#1379000000000000
b1010011001000 aaaag
0aaaam

#1382000000000000
1aaaam

#1383000000000000
b1101001001000 aaaag
0aaaam

#1386000000000000
1aaaam

#1387000000000000
b1010011001100 aaaag
0aaaam

#1390000000000000
1aaaam

#1391000000000000
b1101010001000 aaaag
0aaaam

#1394000000000000
1aaaam

#1395000000000000
b1010011010000 aaaag
0aaaam

#1398000000000000
1aaaam

#1399000000000000
b1101011001000 aaaag
0aaaam

#1402000000000000
1aaaam

#1403000000000000
b1010011010100 aaaag
0aaaam

#1406000000000000
1aaaam

#1407000000000000
b1101100001000 aaaag
0aaaam

#1410000000000000
1aaaam

#1411000000000000
b1010011011000 aaaag
0aaaam

#1414000000000000
1aaaam

#1415000000000000
b1101101001000 aaaag
0aaaam

#1418000000000000
1aaaam

#1419000000000000
b1010011011100 aaaag
0aaaam

#1422000000000000
1aaaam

#1423000000000000
b1101110001000 aaaag
0aaaam

#1426000000000000
1aaaam

#1427000000000000
b1010011100000 aaaag
0aaaam

#1430000000000000
1aaaam

#1431000000000000
b1101111001000 aaaag
0aaaam

#1434000000000000
1aaaam

#1435000000000000
b1010011100100 aaaag
0aaaam

#1438000000000000
1aaaam

#1439000000000000
b1110000001000 aaaag
0aaaam

#1442000000000000
1aaaam

#1443000000000000
b1010011101000 aaaag
0aaaam

#1446000000000000
1aaaam

#1447000000000000
b1110001001000 aaaag
0aaaam

#1450000000000000
1aaaam

#1451000000000000
b1010011101100 aaaag
0aaaam

#1454000000000000
1aaaam

#1455000000000000
b1110010001000 aaaag
0aaaam

#1458000000000000
1aaaam

#1459000000000000
b1100011100111101 aaaaa
b1100011100111101 aaaac
b110011101101000 aaaag
b110011101101000 aaaah
1aaaaj
0aaaam
0aaaap

#1460000000000000
b1100011100111101 aaaae
b110011101101000 aaaai

#1560000000000000
1aaaao

#1561000000000000
0aaaao

#1572000000000000
1aaaan

#1573000000000000
0aaaan

#1576000000000000
1aaaam

#1577000000000000
b0 aaaaa
b1010010110000 aaaag
0aaaaj
0aaaam
1aaaap

#1580000000000000
1aaaam

#1581000000000000
b1100011001100 aaaag
0aaaam

#1584000000000000
1aaaam

#1585000000000000
b1010010110100 aaaag
0aaaam

#1588000000000000
1aaaam

#1589000000000000
b1100100001100 aaaag
0aaaam

#1592000000000000
1aaaam

#1593000000000000
b1010010111000 aaaag
0aaaam

#1596000000000000
1aaaam

#1597000000000000
b1100101001100 aaaag
0aaaam

#1600000000000000
1aaaam

#1601000000000000
b1010010111100 aaaag
0aaaam

#1604000000000000
1aaaam

#1605000000000000
b1100110001100 aaaag
0aaaam

#1608000000000000
1aaaam

#1609000000000000
b1010011000000 aaaag
0aaaam

#1612000000000000
1aaaam

#1613000000000000
b1100111001100 aaaag
0aaaam

#1616000000000000
1aaaam

#1617000000000000
b1010011000100 aaaag
0aaaam

#1620000000000000
1aaaam

#1621000000000000
b1101000001100 aaaag
0aaaam

#1624000000000000
1aaaam

#1625000000000000
b1010011001000 aaaag
0aaaam

#1628000000000000
1aaaam

#1629000000000000
b1101001001100 aaaag
0aaaam

#1632000000000000
1aaaam

#1633000000000000
b1010011001100 aaaag
0aaaam

#1636000000000000
1aaaam

#1637000000000000
b1101010001100 aaaag
0aaaam

#1640000000000000
1aaaam

#1641000000000000
b1010011010000 aaaag
0aaaam

#1644000000000000
1aaaam

#1645000000000000
b1101011001100 aaaag
0aaaam

#1648000000000000
1aaaam

#1649000000000000
b1010011010100 aaaag
0aaaam

#1652000000000000
1aaaam

#1653000000000000
b1101100001100 aaaag
0aaaam

#1656000000000000
1aaaam

#1657000000000000
b1010011011000 aaaag
0aaaam

#1660000000000000
1aaaam

#1661000000000000
b1101101001100 aaaag
0aaaam

#1664000000000000
1aaaam

#1665000000000000
b1010011011100 aaaag
0aaaam

#1668000000000000
1aaaam

#1669000000000000
b1101110001100 aaaag
0aaaam

#1672000000000000
1aaaam

#1673000000000000
b1010011100000 aaaag
0aaaam

#1676000000000000
1aaaam

#1677000000000000
b1101111001100 aaaag
0aaaam

#1680000000000000
1aaaam

#1681000000000000
b1010011100100 aaaag
0aaaam

#1684000000000000
1aaaam

#1685000000000000
b1110000001100 aaaag
0aaaam

#1688000000000000
1aaaam

#1689000000000000
b1010011101000 aaaag
0aaaam

#1692000000000000
1aaaam

#1693000000000000
b1110001001100 aaaag
0aaaam

#1696000000000000
1aaaam

#1697000000000000
b1010011101100 aaaag
0aaaam

#1700000000000000
1aaaam

#1701000000000000
b1110010001100 aaaag
0aaaam

#1704000000000000
1aaaam

#1705000000000000
b1000000001011001 aaaaa
b1000000001011001 aaaac
b110011101101100 aaaag
b110011101101100 aaaah
1aaaaj
0aaaam
0aaaap

#1706000000000000
b1000000001011001 aaaae
b110011101101100 aaaai

#1806000000000000
1aaaao

#1807000000000000
0aaaao

#1818000000000000
1aaaan

#1819000000000000
0aaaan

#1822000000000000
1aaaam

#1823000000000000
b0 aaaaa
b1010010110000 aaaag
0aaaaj
0aaaam
1aaaap

#1826000000000000
1aaaam

#1827000000000000
b1100011010000 aaaag
0aaaam

#1830000000000000
1aaaam

#1831000000000000
b1010010110100 aaaag
0aaaam

#1834000000000000
1aaaam

#1835000000000000
b1100100010000 aaaag
0aaaam

#1838000000000000
1aaaam

#1839000000000000
b1010010111000 aaaag
0aaaam

#1842000000000000
1aaaam

#1843000000000000
b1100101010000 aaaag
0aaaam

#1846000000000000
1aaaam

#1847000000000000
b1010010111100 aaaag
0aaaam

#1850000000000000
1aaaam

#1851000000000000
b1100110010000 aaaag
0aaaam

#1854000000000000
1aaaam

#1855000000000000
b1010011000000 aaaag
0aaaam

#1858000000000000
1aaaam

#1859000000000000
b1100111010000 aaaag
0aaaam

#1862000000000000
1aaaam

#1863000000000000
b1010011000100 aaaag
0aaaam

#1866000000000000
1aaaam

#1867000000000000
b1101000010000 aaaag
0aaaam

#1870000000000000
1aaaam

#1871000000000000
b1010011001000 aaaag
0aaaam

#1874000000000000
1aaaam

#1875000000000000
b1101001010000 aaaag
0aaaam

#1878000000000000
1aaaam

#1879000000000000
b1010011001100 aaaag
0aaaam

#1882000000000000
1aaaam

#1883000000000000
b1101010010000 aaaag
0aaaam

#1886000000000000
1aaaam

#1887000000000000
b1010011010000 aaaag
0aaaam

#1890000000000000
1aaaam

#1891000000000000
b1101011010000 aaaag
0aaaam

#1894000000000000
1aaaam

#1895000000000000
b1010011010100 aaaag
0aaaam

#1898000000000000
1aaaam

#1899000000000000
b1101100010000 aaaag
0aaaam

#1902000000000000
1aaaam

#1903000000000000
b1010011011000 aaaag
0aaaam

#1906000000000000
1aaaam

#1907000000000000
b1101101010000 aaaag
0aaaam

#1910000000000000
1aaaam

#1911000000000000
b1010011011100 aaaag
0aaaam

#1914000000000000
1aaaam

#1915000000000000
b1101110010000 aaaag
0aaaam

#1918000000000000
1aaaam

#1919000000000000
b1010011100000 aaaag
0aaaam

#1922000000000000
1aaaam

#1923000000000000
b1101111010000 aaaag
0aaaam

#1926000000000000
1aaaam

#1927000000000000
b1010011100100 aaaag
0aaaam

#1930000000000000
1aaaam

#1931000000000000
b1110000010000 aaaag
0aaaam

#1934000000000000
1aaaam

#1935000000000000
b1010011101000 aaaag
0aaaam

#1938000000000000
1aaaam

#1939000000000000
b1110001010000 aaaag
0aaaam

#1942000000000000
1aaaam

#1943000000000000
b1010011101100 aaaag
0aaaam

#1946000000000000
1aaaam

#1947000000000000
b1110010010000 aaaag
0aaaam

#1950000000000000
1aaaam

#1951000000000000
b1011110101000100 aaaaa
b1011110101000100 aaaac
b110011101110000 aaaag
b110011101110000 aaaah
1aaaaj
0aaaam
0aaaap

#1952000000000000
b1011110101000100 aaaae
b110011101110000 aaaai

#2052000000000000
1aaaao

#2053000000000000
0aaaao

#2064000000000000
1aaaan

#2065000000000000
0aaaan

#2068000000000000
1aaaam

#2069000000000000
b0 aaaaa
b1010010110000 aaaag
0aaaaj
0aaaam
1aaaap

#2072000000000000
1aaaam

#2073000000000000
b1100011010100 aaaag
0aaaam

#2076000000000000
1aaaam

#2077000000000000
b1010010110100 aaaag
0aaaam

#2080000000000000
1aaaam

#2081000000000000
b1100100010100 aaaag
0aaaam

#2084000000000000
1aaaam

#2085000000000000
b1010010111000 aaaag
0aaaam

#2088000000000000
1aaaam

#2089000000000000
b1100101010100 aaaag
0aaaam

#2092000000000000
1aaaam

#2093000000000000
b1010010111100 aaaag
0aaaam

#2096000000000000
1aaaam

#2097000000000000
b1100110010100 aaaag
0aaaam

#2100000000000000
1aaaam

#2101000000000000
b1010011000000 aaaag
0aaaam

#2104000000000000
1aaaam

#2105000000000000
b1100111010100 aaaag
0aaaam

#2108000000000000
1aaaam

#2109000000000000
b1010011000100 aaaag
0aaaam

#2112000000000000
1aaaam

#2113000000000000
b1101000010100 aaaag
0aaaam

#2116000000000000
1aaaam

#2117000000000000
b1010011001000 aaaag
0aaaam

#2120000000000000
1aaaam

#2121000000000000
b1101001010100 aaaag
0aaaam

#2124000000000000
1aaaam

#2125000000000000
b1010011001100 aaaag
0aaaam

#2128000000000000
1aaaam

#2129000000000000
b1101010010100 aaaag
0aaaam

#2132000000000000
1aaaam

#2133000000000000
b1010011010000 aaaag
0aaaam

#2136000000000000
1aaaam

#2137000000000000
b1101011010100 aaaag
0aaaam

#2140000000000000
1aaaam

#2141000000000000
b1010011010100 aaaag
0aaaam

#2144000000000000
1aaaam

#2145000000000000
b1101100010100 aaaag
0aaaam

#2148000000000000
1aaaam

#2149000000000000
b1010011011000 aaaag
0aaaam

#2152000000000000
1aaaam

#2153000000000000
b1101101010100 aaaag
0aaaam

#2156000000000000
1aaaam

#2157000000000000
b1010011011100 aaaag
0aaaam

#2160000000000000
1aaaam

#2161000000000000
b1101110010100 aaaag
0aaaam

#2164000000000000
1aaaam

#2165000000000000
b1010011100000 aaaag
0aaaam

#2168000000000000
1aaaam

#2169000000000000
b1101111010100 aaaag
0aaaam

#2172000000000000
1aaaam

#2173000000000000
b1010011100100 aaaag
0aaaam

#2176000000000000
1aaaam

#2177000000000000
b1110000010100 aaaag
0aaaam

#2180000000000000
1aaaam

#2181000000000000
b1010011101000 aaaag
0aaaam

#2184000000000000
1aaaam

#2185000000000000
b1110001010100 aaaag
0aaaam

#2188000000000000
1aaaam

#2189000000000000
b1010011101100 aaaag
0aaaam

#2192000000000000
1aaaam

#2193000000000000
b1110010010100 aaaag
0aaaam

#2196000000000000
1aaaam

#2197000000000000
b1011000011101011 aaaaa
b1011000011101011 aaaac
b110011101110100 aaaag
b110011101110100 aaaah
1aaaaj
0aaaam
0aaaap

#2198000000000000
b1011000011101011 aaaae
b110011101110100 aaaai

#2298000000000000
1aaaao

#2299000000000000
0aaaao

#2310000000000000
1aaaan

#2311000000000000
0aaaan

#2314000000000000
1aaaam

#2315000000000000
b0 aaaaa
b1010010110000 aaaag
0aaaaj
0aaaam
1aaaap

#2318000000000000
1aaaam

#2319000000000000
b1100011011000 aaaag
0aaaam

#2322000000000000
1aaaam

#2323000000000000
b1010010110100 aaaag
0aaaam

#2326000000000000
1aaaam

#2327000000000000
b1100100011000 aaaag
0aaaam

#2330000000000000
1aaaam

#2331000000000000
b1010010111000 aaaag
0aaaam

#2334000000000000
1aaaam

#2335000000000000
b1100101011000 aaaag
0aaaam

#2338000000000000
1aaaam

#2339000000000000
b1010010111100 aaaag
0aaaam

#2342000000000000
1aaaam

#2343000000000000
b1100110011000 aaaag
0aaaam

#2346000000000000
1aaaam

#2347000000000000
b1010011000000 aaaag
0aaaam

#2350000000000000
1aaaam

#2351000000000000
b1100111011000 aaaag
0aaaam

#2354000000000000
1aaaam

#2355000000000000
b1010011000100 aaaag
0aaaam

#2358000000000000
1aaaam

#2359000000000000
b1101000011000 aaaag
0aaaam

#2362000000000000
1aaaam

#2363000000000000
b1010011001000 aaaag
0aaaam

#2366000000000000
1aaaam

#2367000000000000
b1101001011000 aaaag
0aaaam

#2370000000000000
1aaaam

#2371000000000000
b1010011001100 aaaag
0aaaam

#2374000000000000
1aaaam

#2375000000000000
b1101010011000 aaaag
0aaaam

#2378000000000000
1aaaam

#2379000000000000
b1010011010000 aaaag
0aaaam

#2382000000000000
1aaaam

#2383000000000000
b1101011011000 aaaag
0aaaam

#2386000000000000
1aaaam

#2387000000000000
b1010011010100 aaaag
0aaaam

#2390000000000000
1aaaam

#2391000000000000
b1101100011000 aaaag
0aaaam

#2394000000000000
1aaaam

#2395000000000000
b1010011011000 aaaag
0aaaam

#2398000000000000
1aaaam

#2399000000000000
b1101101011000 aaaag
0aaaam

#2402000000000000
1aaaam

#2403000000000000
b1010011011100 aaaag
0aaaam

#2406000000000000
1aaaam

#2407000000000000
b1101110011000 aaaag
0aaaam

#2410000000000000
1aaaam

#2411000000000000
b1010011100000 aaaag
0aaaam

#2414000000000000
1aaaam

#2415000000000000
b1101111011000 aaaag
0aaaam

#2418000000000000
1aaaam

#2419000000000000
b1010011100100 aaaag
0aaaam

#2422000000000000
1aaaam

#2423000000000000
b1110000011000 aaaag
0aaaam

#2426000000000000
1aaaam

#2427000000000000
b1010011101000 aaaag
0aaaam

#2430000000000000
1aaaam

#2431000000000000
b1110001011000 aaaag
0aaaam

#2434000000000000
1aaaam

#2435000000000000
b1010011101100 aaaag
0aaaam

#2438000000000000
1aaaam

#2439000000000000
b1110010011000 aaaag
0aaaam

#2442000000000000
1aaaam

#2443000000000000
b111001110010011 aaaaa
b111001110010011 aaaac
b110011101111000 aaaag
b110011101111000 aaaah
1aaaaj
0aaaam
0aaaap

#2444000000000000
b111001110010011 aaaae
b110011101111000 aaaai

#2544000000000000
1aaaao

#2545000000000000
0aaaao

#2556000000000000
1aaaan

#2557000000000000
0aaaan

#2560000000000000
1aaaam

#2561000000000000
b0 aaaaa
b1010010110000 aaaag
0aaaaj
0aaaam
1aaaap

#2564000000000000
1aaaam

#2565000000000000
b1100011011100 aaaag
0aaaam

#2568000000000000
1aaaam

#2569000000000000
b1010010110100 aaaag
0aaaam

#2572000000000000
1aaaam

#2573000000000000
b1100100011100 aaaag
0aaaam

#2576000000000000
1aaaam

#2577000000000000
b1010010111000 aaaag
0aaaam

#2580000000000000
1aaaam

#2581000000000000
b1100101011100 aaaag
0aaaam

#2584000000000000
1aaaam

#2585000000000000
b1010010111100 aaaag
0aaaam

#2588000000000000
1aaaam

#2589000000000000
b1100110011100 aaaag
0aaaam

#2592000000000000
1aaaam

#2593000000000000
b1010011000000 aaaag
0aaaam

#2596000000000000
1aaaam

#2597000000000000
b1100111011100 aaaag
0aaaam

#2600000000000000
1aaaam

#2601000000000000
b1010011000100 aaaag
0aaaam

#2604000000000000
1aaaam

#2605000000000000
b1101000011100 aaaag
0aaaam

#2608000000000000
1aaaam

#2609000000000000
b1010011001000 aaaag
0aaaam

#2612000000000000
1aaaam

#2613000000000000
b1101001011100 aaaag
0aaaam

#2616000000000000
1aaaam

#2617000000000000
b1010011001100 aaaag
0aaaam

#2620000000000000
1aaaam

#2621000000000000
b1101010011100 aaaag
0aaaam

#2624000000000000
1aaaam

#2625000000000000
b1010011010000 aaaag
0aaaam

#2628000000000000
1aaaam

#2629000000000000
b1101011011100 aaaag
0aaaam

#2632000000000000
1aaaam

#2633000000000000
b1010011010100 aaaag
0aaaam

#2636000000000000
1aaaam

#2637000000000000
b1101100011100 aaaag
0aaaam

#2640000000000000
1aaaam

#2641000000000000
b1010011011000 aaaag
0aaaam

#2644000000000000
1aaaam

#2645000000000000
b1101101011100 aaaag
0aaaam

#2648000000000000
1aaaam

#2649000000000000
b1010011011100 aaaag
0aaaam

#2652000000000000
1aaaam

#2653000000000000
b1101110011100 aaaag
0aaaam

#2656000000000000
1aaaam

#2657000000000000
b1010011100000 aaaag
0aaaam

#2660000000000000
1aaaam

#2661000000000000
b1101111011100 aaaag
0aaaam

#2664000000000000
1aaaam

#2665000000000000
b1010011100100 aaaag
0aaaam

#2668000000000000
1aaaam

#2669000000000000
b1110000011100 aaaag
0aaaam

#2672000000000000
1aaaam

#2673000000000000
b1010011101000 aaaag
0aaaam

#2676000000000000
1aaaam

#2677000000000000
b1110001011100 aaaag
0aaaam

#2680000000000000
1aaaam

#2681000000000000
b1010011101100 aaaag
0aaaam

#2684000000000000
1aaaam

#2685000000000000
b1110010011100 aaaag
0aaaam

#2688000000000000
1aaaam

#2689000000000000
b111011111111101 aaaaa
b111011111111101 aaaac
b110011101111100 aaaag
b110011101111100 aaaah
1aaaaj
0aaaam
0aaaap

#2690000000000000
b111011111111101 aaaae
b110011101111100 aaaai

#2790000000000000
1aaaao

#2791000000000000
0aaaao

#2802000000000000
1aaaan

#2803000000000000
0aaaan

#2806000000000000
1aaaam

#2807000000000000
b0 aaaaa
b1010010110000 aaaag
0aaaaj
0aaaam
1aaaap

#2810000000000000
1aaaam

#2811000000000000
b1100011100000 aaaag
0aaaam

#2814000000000000
1aaaam

#2815000000000000
b1010010110100 aaaag
0aaaam

#2818000000000000
1aaaam

#2819000000000000
b1100100100000 aaaag
0aaaam

#2822000000000000
1aaaam

#2823000000000000
b1010010111000 aaaag
0aaaam

#2826000000000000
1aaaam

#2827000000000000
b1100101100000 aaaag
0aaaam

#2830000000000000
1aaaam

#2831000000000000
b1010010111100 aaaag
0aaaam

#2834000000000000
1aaaam

#2835000000000000
b1100110100000 aaaag
0aaaam

#2838000000000000
1aaaam

#2839000000000000
b1010011000000 aaaag
0aaaam

#2842000000000000
1aaaam

#2843000000000000
b1100111100000 aaaag
0aaaam

#2846000000000000
1aaaam

#2847000000000000
b1010011000100 aaaag
0aaaam

#2850000000000000
1aaaam

#2851000000000000
b1101000100000 aaaag
0aaaam

#2854000000000000
1aaaam

#2855000000000000
b1010011001000 aaaag
0aaaam

#2858000000000000
1aaaam

#2859000000000000
b1101001100000 aaaag
0aaaam

#2862000000000000
1aaaam

#2863000000000000
b1010011001100 aaaag
0aaaam

#2866000000000000
1aaaam

#2867000000000000
b1101010100000 aaaag
0aaaam

#2870000000000000
1aaaam

#2871000000000000
b1010011010000 aaaag
0aaaam

#2874000000000000
1aaaam

#2875000000000000
b1101011100000 aaaag
0aaaam

#2878000000000000
1aaaam

#2879000000000000
b1010011010100 aaaag
0aaaam

#2882000000000000
1aaaam

#2883000000000000
b1101100100000 aaaag
0aaaam

#2886000000000000
1aaaam

#2887000000000000
b1010011011000 aaaag
0aaaam

#2890000000000000
1aaaam

#2891000000000000
b1101101100000 aaaag
0aaaam

#2894000000000000
1aaaam

#2895000000000000
b1010011011100 aaaag
0aaaam

#2898000000000000
1aaaam

#2899000000000000
b1101110100000 aaaag
0aaaam

#2902000000000000
1aaaam

#2903000000000000
b1010011100000 aaaag
0aaaam

#2906000000000000
1aaaam

#2907000000000000
b1101111100000 aaaag
0aaaam

#2910000000000000
1aaaam

#2911000000000000
b1010011100100 aaaag
0aaaam

#2914000000000000
1aaaam

#2915000000000000
b1110000100000 aaaag
0aaaam

#2918000000000000
1aaaam

#2919000000000000
b1010011101000 aaaag
0aaaam

#2922000000000000
1aaaam

#2923000000000000
b1110001100000 aaaag
0aaaam

#2926000000000000
1aaaam

#2927000000000000
b1010011101100 aaaag
0aaaam

#2930000000000000
1aaaam

