src/assets/vcd/kij.vcd
$date
     Jul 14, 2024       16:32:19
$end

$version
 SystemC 2.3.4-Accellera --- May 24 2024 22:14:56
$end

$timescale
     1 ps
$end

$scope module SystemC $end
$var wire   32  aaaaa  Data_In_0 [31:0]  $end
$var wire   32  aaaab  Data_Out_0 [31:0]  $end
$var wire   32  aaaac  Data_from_L1_to_L2_0 [31:0]  $end
$var wire   32  aaaad  Data_from_L2_to_L1_0 [31:0]  $end
$var wire   32  aaaae  Data_from_L2_to_L1_4 [31:0]  $end
$var wire   32  aaaaf  Data_from_L2_to_L1_8 [31:0]  $end
$var wire   32  aaaag  Data_from_L2_to_L1_12 [31:0]  $end
$var wire   32  aaaah  Data_from_L2_to_Memory_0 [31:0]  $end
$var wire   32  aaaai  Data_from_Memory_to_L2_0 [31:0]  $end
$var wire   32  aaaaj  Data_from_Memory_to_L2_4 [31:0]  $end
$var wire   32  aaaak  Data_from_Memory_to_L2_8 [31:0]  $end
$var wire   32  aaaal  Data_from_Memory_to_L2_12 [31:0]  $end
$var wire   32  aaaam  Address [31:0]  $end
$var wire   32  aaaan  Address_from_L1_to_L2 [31:0]  $end
$var wire   32  aaaao  Address_from_L2_to_Memory [31:0]  $end
$var wire    1  aaaap  WE       $end
$var wire    1  aaaaq  WE_from_L1_to_L2       $end
$var wire    1  aaaar  WE_from_L2_to_Memory       $end
$var wire    1  aaaas  Done_from_L1       $end
$var wire    1  aaaat  Done_from_L2       $end
$var wire    1  aaaau  Done_from_memory       $end
$var wire    1  aaaav  Hit_from_L1       $end
$var wire    1  aaaaw  Hit_from_L2       $end
$upscope $end
$enddefinitions  $end

$comment
All initial values are dumped below at time 0 sec = 0 timescale units.
$end

$dumpvars
b0 aaaaa
b0 aaaab
b0 aaaac
b0 aaaad
b0 aaaae
b0 aaaaf
b0 aaaag
b0 aaaah
b0 aaaai
b0 aaaaj
b0 aaaak
b0 aaaal
b1010010110000 aaaam
b0 aaaan
b0 aaaao
0aaaap
0aaaaq
0aaaar
0aaaas
0aaaat
0aaaau
0aaaav
0aaaaw
$end

#4000000000000
b1010010110000 aaaan

#16000000000000
b1010010110000 aaaao

#76000000000000
1aaaas
1aaaat

#77000000000000
b1100011000000 aaaam
0aaaas
0aaaat

#81000000000000
b1100011000000 aaaan

#93000000000000
b1100011000000 aaaao

#153000000000000
1aaaas
1aaaat

#154000000000000
b110011101100000 aaaam
0aaaas
0aaaat

#158000000000000
b110011101100000 aaaan

#170000000000000
b110011101100000 aaaao

#230000000000000
1aaaas
1aaaat

#231000000000000
b100111101110 aaaaa
1aaaap
0aaaas
0aaaat

#235000000000000
b100111101110 aaaac
1aaaaq
1aaaav

#247000000000000
b100111101110 aaaah
1aaaar
1aaaaw

#307000000000000
1aaaas
1aaaat
1aaaau

#308000000000000
b0 aaaaa
b1010010110000 aaaam
0aaaap
0aaaas
0aaaat
0aaaau
0aaaav
0aaaaw

#312000000000000
1aaaas
1aaaav

#313000000000000
b1100011000100 aaaam
0aaaas
0aaaav

#317000000000000
1aaaas
1aaaav

#318000000000000
b110011101100100 aaaam
0aaaas
0aaaav

#322000000000000
1aaaas
1aaaav

#323000000000000
b110111000110 aaaaa
1aaaap
0aaaas
0aaaav

#327000000000000
b110111000110 aaaac
b110011101100100 aaaan
1aaaav

#339000000000000
b110111000110 aaaah
b110011101100100 aaaao
1aaaaw

#399000000000000
1aaaas
1aaaat
1aaaau

#400000000000000
b0 aaaaa
b1010010110000 aaaam
0aaaap
0aaaas
0aaaat
0aaaau
0aaaav
0aaaaw

#404000000000000
1aaaas
1aaaav

#405000000000000
b1100011001000 aaaam
0aaaas
0aaaav

#409000000000000
1aaaas
1aaaav

#410000000000000
b110011101101000 aaaam
0aaaas
0aaaav

#414000000000000
1aaaas
1aaaav

#415000000000000
b110000000011 aaaaa
1aaaap
0aaaas
0aaaav

#419000000000000
b110000000011 aaaac
b110011101101000 aaaan
1aaaav

#431000000000000
b110000000011 aaaah
b110011101101000 aaaao
1aaaaw

#491000000000000
1aaaas
1aaaat
1aaaau

#492000000000000
b0 aaaaa
b1010010110000 aaaam
0aaaap
0aaaas
0aaaat
0aaaau
0aaaav
0aaaaw

#496000000000000
1aaaas
1aaaav

#497000000000000
b1100011001100 aaaam
0aaaas
0aaaav

#501000000000000
1aaaas
1aaaav

#502000000000000
b110011101101100 aaaam
0aaaas
0aaaav

#506000000000000
1aaaas
1aaaav

#507000000000000
b10101001001 aaaaa
1aaaap
0aaaas
0aaaav

#511000000000000
b10101001001 aaaac
b110011101101100 aaaan
1aaaav

#523000000000000
b10101001001 aaaah
b110011101101100 aaaao
1aaaaw

#583000000000000
1aaaas
1aaaat
1aaaau

#584000000000000
b0 aaaaa
b1010010110000 aaaam
0aaaap
0aaaas
0aaaat
0aaaau
0aaaav
0aaaaw

#588000000000000
1aaaas
1aaaav

#589000000000000
b1100011010000 aaaam
0aaaas
0aaaav

#593000000000000
b1100011010000 aaaan
0aaaaq

#605000000000000
b1100011010000 aaaao
0aaaar

#665000000000000
1aaaas
1aaaat

#666000000000000
b110011101110000 aaaam
0aaaas
0aaaat

#670000000000000
b110011101110000 aaaan

#682000000000000
b110011101110000 aaaao

#742000000000000
1aaaas
1aaaat

#743000000000000
b101100001101 aaaaa
1aaaap
0aaaas
0aaaat

#747000000000000
b101100001101 aaaac
1aaaaq
1aaaav

#759000000000000
b101100001101 aaaah
1aaaar
1aaaaw

#819000000000000
1aaaas
1aaaat
1aaaau

#820000000000000
b0 aaaaa
b1010010110000 aaaam
0aaaap
0aaaas
0aaaat
0aaaau
0aaaav
0aaaaw

#824000000000000
b1010010110000 aaaan
0aaaaq

#836000000000000
1aaaas
1aaaat
1aaaaw

#837000000000000
b1100011010100 aaaam
0aaaas
0aaaat
0aaaaw

#841000000000000
1aaaas
1aaaav

#842000000000000
b110011101110100 aaaam
0aaaas
0aaaav

#846000000000000
b110011101110100 aaaan

#858000000000000
b101100001101 aaaad
1aaaas
1aaaat
1aaaaw

#859000000000000
b11010111010 aaaaa
1aaaap
0aaaas
0aaaat
0aaaaw

#863000000000000
b11010111010 aaaac
1aaaaq
1aaaav

#875000000000000
b11010111010 aaaah
b110011101110100 aaaao
1aaaaw

#935000000000000
1aaaas
1aaaat
1aaaau

#936000000000000
b0 aaaaa
b1010010110000 aaaam
0aaaap
0aaaas
0aaaat
0aaaau
0aaaav
0aaaaw

#940000000000000
b1010010110000 aaaan
0aaaaq

#952000000000000
b0 aaaad
1aaaas
1aaaat
1aaaaw

#953000000000000
b1100011011000 aaaam
0aaaas
0aaaat
0aaaaw

#957000000000000
1aaaas
1aaaav

#958000000000000
b110011101111000 aaaam
0aaaas
0aaaav

#962000000000000
b110011101111000 aaaan

#974000000000000
b101100001101 aaaad
1aaaas
1aaaat
1aaaaw

#975000000000000
b11100001100 aaaaa
1aaaap
0aaaas
0aaaat
0aaaaw

#979000000000000
b11100001100 aaaac
1aaaaq
1aaaav

#991000000000000
b11100001100 aaaah
b110011101111000 aaaao
1aaaaw

#1051000000000000
1aaaas
1aaaat
1aaaau

#1052000000000000
b0 aaaaa
b1010010110000 aaaam
0aaaap
0aaaas
0aaaat
0aaaau
0aaaav
0aaaaw

#1056000000000000
b1010010110000 aaaan
0aaaaq

#1068000000000000
b0 aaaad
1aaaas
1aaaat
1aaaaw

#1069000000000000
b1100011011100 aaaam
0aaaas
0aaaat
0aaaaw

#1073000000000000
1aaaas
1aaaav

#1074000000000000
b110011101111100 aaaam
0aaaas
0aaaav

#1078000000000000
b110011101111100 aaaan

#1090000000000000
b101100001101 aaaad
1aaaas
1aaaat
1aaaaw

#1091000000000000
b1010010000 aaaaa
1aaaap
0aaaas
0aaaat
0aaaaw

#1095000000000000
b1010010000 aaaac
1aaaaq
1aaaav

#1107000000000000
b1010010000 aaaah
b110011101111100 aaaao
1aaaaw

#1167000000000000
1aaaas
1aaaat
1aaaau

#1168000000000000
b0 aaaaa
b1010010110000 aaaam
0aaaap
0aaaas
0aaaat
0aaaau
0aaaav
0aaaaw

#1172000000000000
b1010010110000 aaaan
0aaaaq

#1184000000000000
b0 aaaad
1aaaas
1aaaat
1aaaaw

#1185000000000000
b1100011100000 aaaam
0aaaas
0aaaat
0aaaaw

#1189000000000000
b1100011100000 aaaan

#1201000000000000
b1100011100000 aaaao
0aaaar

#1261000000000000
1aaaas
1aaaat

#1262000000000000
b110011110000000 aaaam
0aaaas
0aaaat

#1266000000000000
b110011110000000 aaaan

#1278000000000000
b110011110000000 aaaao

#1338000000000000
1aaaas
1aaaat

#1339000000000000
b110011111001 aaaaa
1aaaap
0aaaas
0aaaat

#1343000000000000
b110011111001 aaaac
1aaaaq
1aaaav

#1355000000000000
b110011111001 aaaah
1aaaar
1aaaaw

#1415000000000000
1aaaas
1aaaat
1aaaau

#1416000000000000
b0 aaaaa
b1010010110000 aaaam
0aaaap
0aaaas
0aaaat
0aaaau
0aaaav
0aaaaw

#1420000000000000
1aaaas
1aaaav

#1421000000000000
b1100011100100 aaaam
0aaaas
0aaaav

#1425000000000000
1aaaas
1aaaav

#1426000000000000
b110011110000100 aaaam
0aaaas
0aaaav

#1430000000000000
1aaaas
1aaaav

#1431000000000000
b111110110010 aaaaa
1aaaap
0aaaas
0aaaav

#1435000000000000
b111110110010 aaaac
b110011110000100 aaaan
1aaaav

#1447000000000000
b111110110010 aaaah
b110011110000100 aaaao
1aaaaw

#1507000000000000
1aaaas
1aaaat
1aaaau

#1508000000000000
b0 aaaaa
b1010010110000 aaaam
0aaaap
0aaaas
0aaaat
0aaaau
0aaaav
0aaaaw

#1512000000000000
1aaaas
1aaaav

#1513000000000000
b1100011101000 aaaam
0aaaas
0aaaav

#1517000000000000
1aaaas
1aaaav

#1518000000000000
b110011110001000 aaaam
0aaaas
0aaaav

#1522000000000000
1aaaas
1aaaav

#1523000000000000
b1110000110 aaaaa
1aaaap
0aaaas
0aaaav

#1527000000000000
b1110000110 aaaac
b110011110001000 aaaan
1aaaav

#1539000000000000
b1110000110 aaaah
b110011110001000 aaaao
1aaaaw

#1599000000000000
1aaaas
1aaaat
1aaaau

#1600000000000000
b0 aaaaa
b1010010110000 aaaam
0aaaap
0aaaas
0aaaat
0aaaau
0aaaav
0aaaaw

#1604000000000000
1aaaas
1aaaav

#1605000000000000
b1100011101100 aaaam
0aaaas
0aaaav

#1609000000000000
1aaaas
1aaaav

#1610000000000000
b110011110001100 aaaam
0aaaas
0aaaav

#1614000000000000
1aaaas
1aaaav

#1615000000000000
b100000101011 aaaaa
1aaaap
0aaaas
0aaaav

#1619000000000000
b100000101011 aaaac
b110011110001100 aaaan
1aaaav

#1631000000000000
b100000101011 aaaah
b110011110001100 aaaao
1aaaaw

#1691000000000000
1aaaas
1aaaat
1aaaau

#1692000000000000
b0 aaaaa
b1010010110000 aaaam
0aaaap
0aaaas
0aaaat
0aaaau
0aaaav
0aaaaw

#1696000000000000
1aaaas
1aaaav

#1697000000000000
b1100011110000 aaaam
0aaaas
0aaaav

#1701000000000000
b1100011110000 aaaan
0aaaaq

#1713000000000000
b1100011110000 aaaao
0aaaar

#1773000000000000
1aaaas
1aaaat

#1774000000000000
b110011110010000 aaaam
0aaaas
0aaaat

#1778000000000000
b110011110010000 aaaan

#1790000000000000
b110011110010000 aaaao

#1850000000000000
1aaaas
1aaaat

#1851000000000000
b1101011101 aaaaa
1aaaap
0aaaas
0aaaat

#1855000000000000
b1101011101 aaaac
1aaaaq
1aaaav

#1867000000000000
b1101011101 aaaah
1aaaar
1aaaaw

#1927000000000000
1aaaas
1aaaat
1aaaau

#1928000000000000
b0 aaaaa
b1010010110000 aaaam
0aaaap
0aaaas
0aaaat
0aaaau
0aaaav
0aaaaw

#1932000000000000
b1010010110000 aaaan
0aaaaq

#1944000000000000
1aaaas
1aaaat
1aaaaw

#1945000000000000
b1100011110100 aaaam
0aaaas
0aaaat
0aaaaw

#1949000000000000
b1100011110100 aaaan

#1961000000000000
1aaaas
1aaaat
1aaaaw

#1962000000000000
b110011110010100 aaaam
0aaaas
0aaaat
0aaaaw

#1966000000000000
1aaaas
1aaaav

#1967000000000000
b111111011011 aaaaa
1aaaap
0aaaas
0aaaav

#1971000000000000
b111111011011 aaaac
b110011110010100 aaaan
1aaaaq
1aaaav

#1983000000000000
b111111011011 aaaah
b110011110010100 aaaao
1aaaaw

#2043000000000000
1aaaas
1aaaat
1aaaau

#2044000000000000
b0 aaaaa
b1010010110000 aaaam
0aaaap
0aaaas
0aaaat
0aaaau
0aaaav
0aaaaw

#2048000000000000
b1010010110000 aaaan
0aaaaq

#2060000000000000
1aaaas
1aaaat
1aaaaw

#2061000000000000
b1100011111000 aaaam
0aaaas
0aaaat
0aaaaw

#2065000000000000
b1100011111000 aaaan

#2077000000000000
1aaaas
1aaaat
1aaaaw

#2078000000000000
b110011110011000 aaaam
0aaaas
0aaaat
0aaaaw

#2082000000000000
1aaaas
1aaaav

#2083000000000000
b100100100001 aaaaa
1aaaap
0aaaas
0aaaav

#2087000000000000
b100100100001 aaaac
b110011110011000 aaaan
1aaaaq
1aaaav

#2099000000000000
b100100100001 aaaah
b110011110011000 aaaao
1aaaaw

#2159000000000000
1aaaas
1aaaat
1aaaau

#2160000000000000
b0 aaaaa
b1010010110000 aaaam
0aaaap
0aaaas
0aaaat
0aaaau
0aaaav
0aaaaw

#2164000000000000
b1010010110000 aaaan
0aaaaq

#2176000000000000
1aaaas
1aaaat
1aaaaw

#2177000000000000
b1100011111100 aaaam
0aaaas
0aaaat
0aaaaw

#2181000000000000
b1100011111100 aaaan

#2193000000000000
1aaaas
1aaaat
1aaaaw

#2194000000000000
b110011110011100 aaaam
0aaaas
0aaaat
0aaaaw

#2198000000000000
1aaaas
1aaaav

#2199000000000000
b110000101100 aaaaa
1aaaap
0aaaas
0aaaav

#2203000000000000
b110000101100 aaaac
b110011110011100 aaaan
1aaaaq
1aaaav

#2215000000000000
b110000101100 aaaah
b110011110011100 aaaao
1aaaaw

#2275000000000000
1aaaas
1aaaat
1aaaau

#2276000000000000
b0 aaaaa
b1010011110000 aaaam
0aaaap
0aaaas
0aaaat
0aaaau
0aaaav
0aaaaw

#2280000000000000
b1010011110000 aaaan
0aaaaq

#2292000000000000
b1010011110000 aaaao
0aaaar

#2352000000000000
1aaaas
1aaaat

#2353000000000000
b1100011000000 aaaam
0aaaas
0aaaat

#2357000000000000
b1100011000000 aaaan

#2369000000000000
1aaaas
1aaaat
1aaaaw

#2370000000000000
b110011110100000 aaaam
0aaaas
0aaaat
0aaaaw

#2374000000000000
b110011110100000 aaaan

#2386000000000000
b110011110100000 aaaao

#2446000000000000
1aaaas
1aaaat

#2447000000000000
b1011100000010 aaaaa
1aaaap
0aaaas
0aaaat

#2451000000000000
b1011100000010 aaaac
1aaaaq
1aaaav

#2463000000000000
b1011100000010 aaaah
1aaaar
1aaaaw

#2523000000000000
1aaaas
1aaaat
1aaaau

#2524000000000000
b0 aaaaa
b1010011110000 aaaam
0aaaap
0aaaas
0aaaat
0aaaau
0aaaav
0aaaaw

#2528000000000000
1aaaas
1aaaav

#2529000000000000
b1100011000100 aaaam
0aaaas
0aaaav

#2533000000000000
1aaaas
1aaaav

#2534000000000000
b110011110100100 aaaam
0aaaas
0aaaav

#2538000000000000
1aaaas
1aaaav

#2539000000000000
b1111111101010 aaaaa
1aaaap
0aaaas
0aaaav

#2543000000000000
b1111111101010 aaaac
b110011110100100 aaaan
1aaaav

#2555000000000000
b1111111101010 aaaah
b110011110100100 aaaao
1aaaaw

#2615000000000000
1aaaas
1aaaat
1aaaau

#2616000000000000
b0 aaaaa
b1010011110000 aaaam
0aaaap
0aaaas
0aaaat
0aaaau
0aaaav
0aaaaw

#2620000000000000
1aaaas
1aaaav

#2621000000000000
b1100011001000 aaaam
0aaaas
0aaaav

#2625000000000000
1aaaas
1aaaav

#2626000000000000
b110011110101000 aaaam
0aaaas
0aaaav

#2630000000000000
1aaaas
1aaaav

#2631000000000000
b1101111010101 aaaaa
1aaaap
0aaaas
0aaaav

#2635000000000000
b1101111010101 aaaac
b110011110101000 aaaan
1aaaav

#2647000000000000
b1101111010101 aaaah
b110011110101000 aaaao
1aaaaw

#2707000000000000
1aaaas
1aaaat
1aaaau

#2708000000000000
b0 aaaaa
b1010011110000 aaaam
0aaaap
0aaaas
0aaaat
0aaaau
0aaaav
0aaaaw

#2712000000000000
1aaaas
1aaaav

#2713000000000000
b1100011001100 aaaam
0aaaas
0aaaav

#2717000000000000
1aaaas
1aaaav

#2718000000000000
b110011110101100 aaaam
0aaaas
0aaaav

#2722000000000000
1aaaas
1aaaav

#2723000000000000
b110000111111 aaaaa
1aaaap
0aaaas
0aaaav

#2727000000000000
b110000111111 aaaac
b110011110101100 aaaan
1aaaav

#2739000000000000
b110000111111 aaaah
b110011110101100 aaaao
1aaaaw

#2799000000000000
1aaaas
1aaaat
1aaaau

#2800000000000000
b0 aaaaa
b1010011110000 aaaam
0aaaap
0aaaas
0aaaat
0aaaau
0aaaav
0aaaaw

#2804000000000000
1aaaas
1aaaav

#2805000000000000
b1100011010000 aaaam
0aaaas
0aaaav

#2809000000000000
b1100011010000 aaaan
0aaaaq

#2821000000000000
1aaaas
1aaaat
1aaaaw

#2822000000000000
b110011110110000 aaaam
0aaaas
0aaaat
0aaaaw

#2826000000000000
b110011110110000 aaaan

#2838000000000000
b110011110110000 aaaao
0aaaar

#2898000000000000
1aaaas
1aaaat

#2899000000000000
b1100110011011 aaaaa
1aaaap
0aaaas
0aaaat

#2903000000000000
b1100110011011 aaaac
1aaaaq
1aaaav

#2915000000000000
b1100110011011 aaaah
1aaaar
1aaaaw

#2975000000000000
1aaaas
1aaaat
1aaaau

#2976000000000000
b0 aaaaa
b1010011110000 aaaam
0aaaap
0aaaas
0aaaat
0aaaau
0aaaav
0aaaaw

#2980000000000000
b1010011110000 aaaan
0aaaaq

#2992000000000000
1aaaas
1aaaat
1aaaaw

#2993000000000000
b1100011010100 aaaam
0aaaas
0aaaat
0aaaaw

#2997000000000000
1aaaas
1aaaav

#2998000000000000
b110011110110100 aaaam
0aaaas
0aaaav

#3002000000000000
b110011110110100 aaaan

#3014000000000000
b1100110011011 aaaad
1aaaas
1aaaat
1aaaaw

#3015000000000000
b111110010110 aaaaa
1aaaap
0aaaas
0aaaat
0aaaaw

#3019000000000000
b111110010110 aaaac
1aaaaq
1aaaav

#3031000000000000
b111110010110 aaaah
b110011110110100 aaaao
1aaaaw

#3091000000000000
1aaaas
1aaaat
1aaaau

#3092000000000000
b0 aaaaa
b1010011110000 aaaam
0aaaap
0aaaas
0aaaat
0aaaau
0aaaav
0aaaaw

#3096000000000000
b1010011110000 aaaan
0aaaaq

#3108000000000000
b0 aaaad
1aaaas
1aaaat
1aaaaw

#3109000000000000
b1100011011000 aaaam
0aaaas
0aaaat
0aaaaw

#3113000000000000
1aaaas
1aaaav

#3114000000000000
b110011110111000 aaaam
0aaaas
0aaaav

#3118000000000000
b110011110111000 aaaan

#3130000000000000
b1100110011011 aaaad
1aaaas
1aaaat
1aaaaw

#3131000000000000
b1000001010100 aaaaa
1aaaap
0aaaas
0aaaat
0aaaaw

#3135000000000000
b1000001010100 aaaac
1aaaaq
1aaaav

#3147000000000000
b1000001010100 aaaah
b110011110111000 aaaao
1aaaaw

#3207000000000000
1aaaas
1aaaat
1aaaau

#3208000000000000
b0 aaaaa
b1010011110000 aaaam
0aaaap
0aaaas
0aaaat
0aaaau
0aaaav
0aaaaw

#3212000000000000
b1010011110000 aaaan
0aaaaq

#3224000000000000
b0 aaaad
1aaaas
1aaaat
1aaaaw

#3225000000000000
b1100011011100 aaaam
0aaaas
0aaaat
0aaaaw

#3229000000000000
1aaaas
1aaaav

#3230000000000000
b110011110111100 aaaam
0aaaas
0aaaav

#3234000000000000
b110011110111100 aaaan

#3246000000000000
b1100110011011 aaaad
1aaaas
1aaaat
1aaaaw

#3247000000000000
b10111110000 aaaaa
1aaaap
0aaaas
0aaaat
0aaaaw

#3251000000000000
b10111110000 aaaac
1aaaaq
1aaaav

#3263000000000000
b10111110000 aaaah
b110011110111100 aaaao
1aaaaw

#3323000000000000
1aaaas
1aaaat
1aaaau

#3324000000000000
b0 aaaaa
b1010011110000 aaaam
0aaaap
0aaaas
0aaaat
0aaaau
0aaaav
0aaaaw

#3328000000000000
b1010011110000 aaaan
0aaaaq

#3340000000000000
b0 aaaad
1aaaas
1aaaat
1aaaaw

#3341000000000000
b1100011100000 aaaam
0aaaas
0aaaat
0aaaaw

#3345000000000000
b1100011100000 aaaan

#3357000000000000
1aaaas
1aaaat
1aaaaw

#3358000000000000
b110011111000000 aaaam
0aaaas
0aaaat
0aaaaw

#3362000000000000
b110011111000000 aaaan

#3374000000000000
b110011111000000 aaaao
0aaaar

#3434000000000000
1aaaas
1aaaat

#3435000000000000
b1111000001111 aaaaa
1aaaap
0aaaas
0aaaat

#3439000000000000
b1111000001111 aaaac
1aaaaq
1aaaav

#3451000000000000
b1111000001111 aaaah
1aaaar
1aaaaw

#3511000000000000
1aaaas
1aaaat
1aaaau

#3512000000000000
b0 aaaaa
b1010011110000 aaaam
0aaaap
0aaaas
0aaaat
0aaaau
0aaaav
0aaaaw

#3516000000000000
1aaaas
1aaaav

#3517000000000000
b1100011100100 aaaam
0aaaas
0aaaav

#3521000000000000
1aaaas
1aaaav

#3522000000000000
b110011111000100 aaaam
0aaaas
0aaaav

#3526000000000000
1aaaas
1aaaav

#3527000000000000
b10010001011110 aaaaa
1aaaap
0aaaas
0aaaav

#3531000000000000
b10010001011110 aaaac
b110011111000100 aaaan
1aaaav

#3543000000000000
b10010001011110 aaaah
b110011111000100 aaaao
1aaaaw

#3603000000000000
1aaaas
1aaaat
1aaaau

#3604000000000000
b0 aaaaa
b1010011110000 aaaam
0aaaap
0aaaas
0aaaat
0aaaau
0aaaav
0aaaaw

#3608000000000000
1aaaas
1aaaav

#3609000000000000
b1100011101000 aaaam
0aaaas
0aaaav

#3613000000000000
1aaaas
1aaaav

#3614000000000000
b110011111001000 aaaam
0aaaas
0aaaav

#3618000000000000
1aaaas
1aaaav

#3619000000000000
b100000101010 aaaaa
1aaaap
0aaaas
0aaaav

#3623000000000000
b100000101010 aaaac
b110011111001000 aaaan
1aaaav

#3635000000000000
b100000101010 aaaah
b110011111001000 aaaao
1aaaaw

#3695000000000000
1aaaas
1aaaat
1aaaau

#3696000000000000
b0 aaaaa
b1010011110000 aaaam
0aaaap
0aaaas
0aaaat
0aaaau
0aaaav
0aaaaw

#3700000000000000
1aaaas
1aaaav

#3701000000000000
b1100011101100 aaaam
0aaaas
0aaaav

#3705000000000000
1aaaas
1aaaav

#3706000000000000
b110011111001100 aaaam
0aaaas
0aaaav

#3710000000000000
1aaaas
1aaaav

#3711000000000000
b1001011101101 aaaaa
1aaaap
0aaaas
0aaaav

#3715000000000000
b1001011101101 aaaac
b110011111001100 aaaan
1aaaav

#3727000000000000
b1001011101101 aaaah
b110011111001100 aaaao
1aaaaw

#3787000000000000
1aaaas
1aaaat
1aaaau

#3788000000000000
b0 aaaaa
b1010011110000 aaaam
0aaaap
0aaaas
0aaaat
0aaaau
0aaaav
0aaaaw

#3792000000000000
1aaaas
1aaaav

#3793000000000000
b1100011110000 aaaam
0aaaas
0aaaav

#3797000000000000
b1100011110000 aaaan
0aaaaq

#3809000000000000
b1100011110000 aaaao
0aaaar

#3869000000000000
1aaaas
1aaaat

#3870000000000000
b110011111010000 aaaam
0aaaas
0aaaat

#3874000000000000
b110011111010000 aaaan

#3886000000000000
b110011111010000 aaaao

#3946000000000000
1aaaas
1aaaat

#3947000000000000
b11111001011 aaaaa
1aaaap
0aaaas
0aaaat

#3951000000000000
b11111001011 aaaac
1aaaaq
1aaaav

#3963000000000000
b11111001011 aaaah
1aaaar
1aaaaw

#4023000000000000
1aaaas
1aaaat
1aaaau

#4024000000000000
b0 aaaaa
b1010011110000 aaaam
0aaaap
0aaaas
0aaaat
0aaaau
0aaaav
0aaaaw

#4028000000000000
b1010011110000 aaaan
0aaaaq

#4040000000000000
b1010011110000 aaaao
0aaaar

#4100000000000000
1aaaas
1aaaat

#4101000000000000
b1100011110100 aaaam
0aaaas
0aaaat

#4105000000000000
b1100011110100 aaaan

#4117000000000000
b1100011110100 aaaao

#4177000000000000
1aaaas
1aaaat

#4178000000000000
b110011111010100 aaaam
0aaaas
0aaaat

#4182000000000000
1aaaas
1aaaav

#4183000000000000
b10010010111101 aaaaa
1aaaap
0aaaas
0aaaav

#4187000000000000
b10010010111101 aaaac
b110011111010100 aaaan
1aaaaq
1aaaav

#4199000000000000
b10010010111101 aaaah
b110011111010100 aaaao
1aaaar
1aaaaw

#4259000000000000
1aaaas
1aaaat
1aaaau

#4260000000000000
b0 aaaaa
b1010011110000 aaaam
0aaaap
0aaaas
0aaaat
0aaaau
0aaaav
0aaaaw

#4264000000000000
b1010011110000 aaaan
0aaaaq

#4276000000000000
b1010011110000 aaaao
0aaaar

#4336000000000000
1aaaas
1aaaat

#4337000000000000
b1100011111000 aaaam
0aaaas
0aaaat

#4341000000000000
b1100011111000 aaaan

#4353000000000000
b1100011111000 aaaao

#4413000000000000
1aaaas
1aaaat

#4414000000000000
b110011111011000 aaaam
0aaaas
0aaaat

#4418000000000000
1aaaas
1aaaav

#4419000000000000
b1010100100111 aaaaa
1aaaap
0aaaas
0aaaav

#4423000000000000
b1010100100111 aaaac
b110011111011000 aaaan
1aaaaq
1aaaav

#4435000000000000
b1010100100111 aaaah
b110011111011000 aaaao
1aaaar
1aaaaw

#4495000000000000
1aaaas
1aaaat
1aaaau

#4496000000000000
b0 aaaaa
b1010011110000 aaaam
0aaaap
0aaaas
0aaaat
0aaaau
0aaaav
0aaaaw

#4500000000000000
b1010011110000 aaaan
0aaaaq

#4512000000000000
b1010011110000 aaaao
0aaaar

#4572000000000000
1aaaas
1aaaat

#4573000000000000
b1100011111100 aaaam
0aaaas
0aaaat

#4577000000000000
b1100011111100 aaaan

#4589000000000000
b1100011111100 aaaao

#4649000000000000
1aaaas
1aaaat

#4650000000000000
b110011111011100 aaaam
0aaaas
0aaaat

#4654000000000000
1aaaas
1aaaav

#4655000000000000
b1110000110100 aaaaa
1aaaap
0aaaas
0aaaav

#4659000000000000
b1110000110100 aaaac
b110011111011100 aaaan
1aaaaq
1aaaav

#4671000000000000
b1110000110100 aaaah
b110011111011100 aaaao
1aaaar
1aaaaw

#4731000000000000
1aaaas
1aaaat
1aaaau

#4732000000000000
b0 aaaaa
b1010100110000 aaaam
0aaaap
0aaaas
0aaaat
0aaaau
0aaaav
0aaaaw

#4736000000000000
b1010100110000 aaaan
0aaaaq

#4748000000000000
b1010100110000 aaaao
0aaaar

#4808000000000000
1aaaas
1aaaat

#4809000000000000
b1100011000000 aaaam
0aaaas
0aaaat

#4813000000000000
b1100011000000 aaaan

#4825000000000000
b1100011000000 aaaao

#4885000000000000
1aaaas
1aaaat

#4886000000000000
b110011111100000 aaaam
0aaaas
0aaaat

#4890000000000000
b110011111100000 aaaan

#4902000000000000
b110011111100000 aaaao

#4962000000000000
1aaaas
1aaaat

#4963000000000000
b1000100110010 aaaaa
1aaaap
0aaaas
0aaaat

#4967000000000000
b1000100110010 aaaac
1aaaaq
1aaaav

#4979000000000000
b1000100110010 aaaah
1aaaar
1aaaaw

#5039000000000000
1aaaas
1aaaat
1aaaau

#5040000000000000
b0 aaaaa
b1010100110000 aaaam
0aaaap
0aaaas
0aaaat
0aaaau
0aaaav
0aaaaw

#5044000000000000
1aaaas
1aaaav

#5045000000000000
b1100011000100 aaaam
0aaaas
0aaaav

#5049000000000000
1aaaas
1aaaav

#5050000000000000
b110011111100100 aaaam
0aaaas
0aaaav

#5054000000000000
1aaaas
1aaaav

#5055000000000000
b1011111011010 aaaaa
1aaaap
0aaaas
0aaaav

#5059000000000000
b1011111011010 aaaac
b110011111100100 aaaan
1aaaav

#5071000000000000
b1011111011010 aaaah
b110011111100100 aaaao
1aaaaw

#5131000000000000
1aaaas
1aaaat
1aaaau

#5132000000000000
b0 aaaaa
b1010100110000 aaaam
0aaaap
0aaaas
0aaaat
0aaaau
0aaaav
0aaaaw

#5136000000000000
1aaaas
1aaaav

#5137000000000000
b1100011001000 aaaam
0aaaas
0aaaav

#5141000000000000
1aaaas
1aaaav

#5142000000000000
b110011111101000 aaaam
0aaaas
0aaaav

#5146000000000000
1aaaas
1aaaav

#5147000000000000
b1010011001101 aaaaa
1aaaap
0aaaas
0aaaav

#5151000000000000
b1010011001101 aaaac
b110011111101000 aaaan
1aaaav

#5163000000000000
b1010011001101 aaaah
b110011111101000 aaaao
1aaaaw

#5223000000000000
1aaaas
1aaaat
1aaaau

#5224000000000000
b0 aaaaa
b1010100110000 aaaam
0aaaap
0aaaas
0aaaat
0aaaau
0aaaav
0aaaaw

#5228000000000000
1aaaas
1aaaav

#5229000000000000
b1100011001100 aaaam
0aaaas
0aaaav

#5233000000000000
1aaaas
1aaaav

#5234000000000000
b110011111101100 aaaam
0aaaas
0aaaav

#5238000000000000
1aaaas
1aaaav

#5239000000000000
b100100100111 aaaaa
1aaaap
0aaaas
0aaaav

#5243000000000000
b100100100111 aaaac
b110011111101100 aaaan
1aaaav

#5255000000000000
b100100100111 aaaah
b110011111101100 aaaao
1aaaaw

#5315000000000000
1aaaas
1aaaat
1aaaau

#5316000000000000
b0 aaaaa
b1010100110000 aaaam
0aaaap
0aaaas
0aaaat
0aaaau
0aaaav
0aaaaw

#5320000000000000
1aaaas
1aaaav

#5321000000000000
b1100011010000 aaaam
0aaaas
0aaaav

#5325000000000000
b1100011010000 aaaan
0aaaaq

#5337000000000000
b1100011010000 aaaao
0aaaar

#5397000000000000
1aaaas
1aaaat

